%!PS-Adobe-3.0 EPSF-3.0
%%Title: yle-mods.eps
%%Creator: matplotlib version 1.4.2, http://matplotlib.org/
%%CreationDate: Sat May 28 10:42:16 2016
%%Orientation: portrait
%%BoundingBox: 18 180 594 612
%%EndComments
%%BeginProlog
/mpldict 9 dict def
mpldict begin
/m { moveto } bind def
/l { lineto } bind def
/r { rlineto } bind def
/c { curveto } bind def
/cl { closepath } bind def
/box {
m
1 index 0 r
0 exch r
neg 0 r
cl
} bind def
/clipbox {
box
clip
newpath
} bind def
%!PS-Adobe-3.0 Resource-Font
%%Title: cmmi10
%%Copyright: Copyright (C) 1994, Basil K. Malyshev. All Rights Reserved.012BaKoMa Fonts Collection, Level-B.
%%Creator: Converted from TrueType to type 3 by PPR
25 dict begin
/_d{bind def}bind def
/_m{moveto}_d
/_l{lineto}_d
/_cl{closepath eofill}_d
/_c{curveto}_d
/_sc{7 -1 roll{setcachedevice}{pop pop pop pop pop pop}ifelse}_d
/_e{exec}_d
/FontName /Cmmi10 def
/PaintType 0 def
/FontMatrix[.001 0 0 .001 0 0]def
/FontBBox[-34 -250 1048 750]def
/FontType 3 def
/Encoding [ /e /g /t /i /m /d /A /u /l /p ] def
/FontInfo 10 dict dup begin
/FamilyName (cmmi10) def
/FullName (cmmi10) def
/Notice (Copyright (C) 1994, Basil K. Malyshev. All Rights Reserved.012BaKoMa Fonts Collection, Level-B. ) def
/Weight (Regular) def
/Version (1.1/12-Nov-94) def
/ItalicAngle 0.0 def
/isFixedPitch false def
/UnderlinePosition -133 def
/UnderlineThickness 20 def
end readonly def
/CharStrings 10 dict dup begin
/e{{465 0 44 -10 430 442 _sc
201 -10 _m
169 -10 141 -2 117 14 _c
93 30 75 53 63 81 _c
50 109 44 138 44 170 _c
44 217 56 262 80 304 _c
104 346 136 379 177 404 _c
218 429 262 442 309 442 _c
337 442 362 434 384 419 _c
405 404 416 383 416 356 _c
416 317 400 288 370 270 _c
339 251 304 239 266 235 _c
228 231 185 229 139 229 _c
136 229 _l
125 189 120 155 120 127 _c
}_e{120 97 126 71 140 49 _c
154 26 175 15 203 15 _c
243 15 281 24 318 42 _c
354 60 384 86 407 118 _c
409 120 411 121 415 121 _c
418 121 421 119 425 115 _c
428 111 430 108 430 105 _c
430 102 429 100 428 99 _c
404 65 371 38 330 19 _c
288 0 245 -10 201 -10 _c
142 255 _m
180 255 216 256 249 260 _c
282 264 312 273 339 287 _c
365 301 379 324 379 355 _c
}_e{379 367 375 378 368 387 _c
361 396 352 403 342 408 _c
331 413 320 416 308 416 _c
280 416 254 408 232 393 _c
209 377 190 357 176 333 _c
161 308 150 282 142 255 _c
_cl}_e}_d
/g{{477 0 14 -204 476 442 _sc
14 -142 _m
14 -126 19 -111 31 -99 _c
42 -87 56 -81 72 -81 _c
82 -81 91 -84 99 -91 _c
106 -97 110 -106 110 -117 _c
110 -129 106 -139 99 -149 _c
92 -159 83 -166 73 -170 _c
91 -175 119 -178 157 -178 _c
187 -178 215 -166 241 -142 _c
266 -118 283 -91 291 -61 _c
320 55 _l
284 18 246 0 207 0 _c
178 0 153 7 133 22 _c
113 36 97 56 87 80 _c
}_e{76 104 71 130 71 158 _c
71 188 77 220 89 254 _c
101 288 119 319 142 348 _c
164 376 190 399 220 416 _c
249 433 280 442 313 442 _c
332 442 349 436 365 426 _c
381 415 393 401 403 383 _c
409 409 424 422 446 422 _c
454 422 461 419 467 414 _c
473 409 476 402 476 394 _c
476 392 476 390 476 389 _c
476 388 475 387 475 386 _c
361 -67 _l
355 -87 346 -106 332 -124 _c
}_e{318 -141 301 -155 282 -167 _c
263 -179 242 -188 220 -194 _c
198 -200 176 -204 156 -204 _c
118 -204 84 -200 56 -193 _c
28 -185 14 -168 14 -142 _c
209 26 _m
251 26 293 55 335 114 _c
390 332 _l
385 355 376 375 362 391 _c
348 407 331 416 311 416 _c
289 416 268 407 248 389 _c
228 371 212 349 199 324 _c
187 300 175 265 163 220 _c
151 175 146 140 146 114 _c
146 91 151 71 161 53 _c
}_e{171 35 187 26 209 26 _c
_cl}_e}_d
/t{{361 0 22 -10 330 626 _sc
62 81 _m
62 91 63 100 65 109 _c
137 396 _l
32 396 _l
25 396 22 400 22 409 _c
24 423 29 431 35 431 _c
146 431 _l
186 594 _l
188 602 193 610 201 616 _c
209 622 218 626 228 626 _c
236 626 243 623 249 618 _c
255 613 258 606 258 598 _c
258 596 257 594 257 593 _c
257 592 257 591 257 590 _c
217 431 _l
320 431 _l
326 431 330 426 330 418 _c
}_e{330 416 329 414 328 410 _c
327 406 326 402 324 400 _c
322 397 320 396 317 396 _c
208 396 _l
136 107 _l
131 88 129 72 129 58 _c
129 29 138 15 158 15 _c
187 15 213 28 236 56 _c
258 84 276 114 288 147 _c
290 151 293 153 296 153 _c
308 153 _l
310 153 312 152 314 150 _c
316 148 317 146 317 144 _c
317 142 316 141 316 141 _c
301 101 280 65 252 35 _c
}_e{224 5 192 -10 156 -10 _c
129 -10 107 -1 89 15 _c
71 32 62 54 62 81 _c
_cl}_e}_d
/i{{344 0 27 -10 296 661 _sc
78 72 _m
78 84 80 97 86 111 _c
167 326 _l
175 350 180 370 180 386 _c
180 406 172 416 158 416 _c
132 416 110 402 93 375 _c
75 347 63 317 55 284 _c
53 280 51 278 47 278 _c
35 278 _l
29 278 27 281 27 287 _c
27 290 _l
37 330 54 365 76 396 _c
98 426 126 442 160 442 _c
184 442 204 434 220 418 _c
236 402 245 383 245 359 _c
}_e{245 346 242 333 237 320 _c
156 105 _l
146 83 142 63 142 45 _c
142 25 149 15 165 15 _c
191 15 212 29 230 57 _c
247 85 259 115 267 147 _c
268 151 271 153 275 153 _c
287 153 _l
289 153 291 152 293 150 _c
295 148 296 146 296 144 _c
296 143 295 142 295 141 _c
285 103 269 68 247 37 _c
224 5 196 -10 163 -10 _c
139 -10 119 -2 103 13 _c
86 29 78 48 78 72 _c
}_e{191 606 _m
191 620 196 632 208 644 _c
220 655 233 661 247 661 _c
258 661 267 657 275 650 _c
282 643 286 634 286 624 _c
286 609 280 596 268 585 _c
256 573 243 568 229 568 _c
218 568 209 571 202 579 _c
194 586 191 595 191 606 _c
_cl}_e}_d
/m{{878 0 27 -10 851 442 _sc
77 17 _m
77 21 77 24 78 26 _c
153 324 _l
157 342 160 359 160 373 _c
160 401 150 416 131 416 _c
110 416 94 403 84 378 _c
74 353 64 322 55 284 _c
55 282 54 280 52 279 _c
50 278 48 278 47 278 _c
35 278 _l
33 278 31 279 29 281 _c
27 283 27 286 27 288 _c
34 317 41 342 48 362 _c
54 382 65 400 79 417 _c
}_e{93 433 110 442 132 442 _c
156 442 178 434 198 418 _c
217 402 227 382 227 358 _c
247 384 270 404 297 419 _c
323 434 352 442 382 442 _c
413 442 440 434 463 418 _c
486 402 498 379 498 349 _c
518 378 542 401 570 417 _c
597 433 627 442 660 442 _c
694 442 722 432 743 414 _c
764 395 775 368 775 334 _c
775 306 768 273 756 235 _c
744 196 729 153 711 105 _c
}_e{701 81 697 61 697 45 _c
697 25 704 15 720 15 _c
746 15 767 29 785 57 _c
802 85 814 115 822 147 _c
824 151 826 153 830 153 _c
842 153 _l
844 153 846 152 848 150 _c
850 148 851 146 851 144 _c
851 143 850 142 850 141 _c
840 103 824 68 802 37 _c
780 5 752 -10 718 -10 _c
694 -10 674 -2 658 13 _c
641 29 633 48 633 72 _c
633 83 635 96 641 111 _c
}_e{659 161 675 205 688 245 _c
700 284 707 319 707 349 _c
707 367 703 383 696 396 _c
688 409 676 416 658 416 _c
622 416 590 404 563 382 _c
536 360 513 330 494 294 _c
492 287 491 282 491 279 _c
427 22 _l
424 12 419 5 411 -1 _c
403 -7 394 -10 385 -10 _c
377 -10 370 -7 364 -3 _c
358 1 355 8 355 17 _c
355 21 355 24 356 26 _c
420 281 _l
426 308 430 331 430 349 _c
}_e{430 367 426 383 418 396 _c
410 409 398 416 380 416 _c
355 416 332 410 312 400 _c
292 389 274 375 259 357 _c
243 339 229 318 217 294 _c
149 22 _l
147 12 142 5 134 -1 _c
126 -7 117 -10 107 -10 _c
99 -10 92 -7 86 -3 _c
80 1 77 8 77 17 _c
_cl}_e}_d
/d{{520 0 38 -10 519 694 _sc
174 -10 _m
132 -10 98 5 74 37 _c
50 68 38 105 38 149 _c
38 191 49 236 71 282 _c
93 328 122 366 160 396 _c
198 426 238 442 282 442 _c
302 442 319 436 335 425 _c
351 414 363 400 372 382 _c
428 605 _l
430 616 432 625 433 632 _c
433 642 411 648 368 648 _c
361 648 358 652 358 661 _c
358 663 358 666 360 670 _c
361 674 362 677 364 679 _c
}_e{366 681 368 683 372 683 _c
507 694 _l
515 694 519 689 519 681 _c
375 106 _l
370 94 368 78 368 58 _c
368 29 377 15 397 15 _c
417 15 433 28 444 55 _c
455 81 464 112 472 147 _c
473 151 476 153 480 153 _c
492 153 _l
494 153 496 151 498 149 _c
500 147 501 145 501 143 _c
489 96 476 59 462 31 _c
448 3 426 -10 395 -10 _c
372 -10 352 -3 335 9 _c
}_e{318 21 307 39 303 61 _c
260 13 217 -10 174 -10 _c
175 15 _m
199 15 222 24 245 42 _c
267 60 287 81 303 106 _c
303 106 304 108 304 110 _c
359 330 _l
355 353 346 373 333 390 _c
319 407 302 416 280 416 _c
257 416 236 406 217 388 _c
197 370 181 348 168 323 _c
154 296 142 259 130 213 _c
118 167 113 131 113 105 _c
113 81 118 60 128 42 _c
138 24 153 15 175 15 _c
}_e{_cl}_e}_d
/A{{750 0 35 0 723 716 _sc
45 0 _m
38 0 35 4 35 13 _c
37 27 42 35 48 35 _c
74 35 97 40 117 51 _c
137 61 154 78 169 101 _c
170 102 171 103 171 103 _c
528 705 _l
533 712 539 716 547 716 _c
560 716 _l
562 716 564 715 566 714 _c
568 713 569 712 571 710 _c
572 708 573 707 573 705 _c
634 59 _l
634 56 635 52 638 46 _c
644 38 669 35 713 35 _c
}_e{719 35 723 30 723 22 _c
721 13 719 7 717 4 _c
715 1 712 0 706 0 _c
456 0 _l
450 0 447 4 447 13 _c
450 27 454 35 460 35 _c
512 35 540 44 544 62 _c
529 227 _l
282 227 _l
202 93 _l
197 85 195 77 195 68 _c
195 56 200 47 212 42 _c
223 37 235 35 249 35 _c
255 35 259 30 259 22 _c
256 12 254 6 253 4 _c
251 1 248 0 242 0 _c
}_e{45 0 _l
302 262 _m
525 262 _l
495 586 _l
302 262 _l
_cl}_e}_d
/u{{572 0 27 -10 546 442 _sc
106 109 _m
106 131 109 153 115 176 _c
121 198 129 224 139 252 _c
149 280 159 305 167 326 _c
175 350 180 370 180 386 _c
180 406 172 416 158 416 _c
132 416 110 402 93 375 _c
75 347 63 317 55 284 _c
53 280 51 278 47 278 _c
35 278 _l
29 278 27 281 27 287 _c
27 290 _l
37 330 54 365 76 396 _c
98 426 126 442 160 442 _c
}_e{184 442 204 434 220 418 _c
236 402 245 383 245 359 _c
245 346 242 333 237 320 _c
233 312 226 294 216 267 _c
206 239 198 217 193 199 _c
187 181 183 163 179 146 _c
175 128 174 111 174 94 _c
174 72 178 53 188 38 _c
197 22 212 15 234 15 _c
276 15 314 41 346 94 _c
346 96 347 99 348 101 _c
348 103 349 106 349 109 _c
421 399 _l
423 407 428 415 436 421 _c
}_e{444 427 453 431 463 431 _c
471 431 478 428 484 423 _c
490 418 493 411 493 403 _c
493 399 492 396 492 395 _c
420 107 _l
415 87 413 70 413 58 _c
413 29 422 15 442 15 _c
463 15 479 28 490 55 _c
500 81 509 112 517 147 _c
518 151 521 153 525 153 _c
537 153 _l
539 153 541 151 543 149 _c
545 147 546 145 546 143 _c
538 114 531 89 525 69 _c
518 49 507 30 493 14 _c
}_e{479 -2 461 -10 440 -10 _c
418 -10 399 -4 383 6 _c
366 17 355 33 349 53 _c
333 33 316 18 296 7 _c
276 -4 254 -10 232 -10 _c
193 -10 162 0 140 21 _c
117 41 106 71 106 109 _c
_cl}_e}_d
/l{{298 0 44 -10 262 694 _sc
44 81 _m
44 83 44 86 44 90 _c
44 94 45 97 46 101 _c
46 105 47 108 47 110 _c
171 605 _l
173 616 175 625 176 632 _c
176 642 154 648 111 648 _c
104 648 101 652 101 661 _c
101 663 102 666 103 670 _c
104 674 105 677 107 679 _c
109 681 111 683 115 683 _c
250 694 _l
258 694 262 689 262 681 _c
118 106 _l
113 95 111 79 111 58 _c
}_e{111 29 120 15 140 15 _c
160 15 176 27 186 53 _c
196 79 206 110 214 147 _c
215 151 218 153 222 153 _c
234 153 _l
236 153 238 151 240 149 _c
242 147 243 145 243 143 _c
235 111 227 85 221 67 _c
215 48 205 30 191 14 _c
177 -2 159 -10 138 -10 _c
111 -10 89 -1 71 15 _c
53 32 44 54 44 81 _c
_cl}_e}_d
/p{{503 0 -33 -193 491 442 _sc
-24 -193 _m
-30 -193 -33 -188 -33 -180 _c
-31 -165 -26 -158 -20 -158 _c
0 -158 14 -156 22 -152 _c
30 -148 37 -139 42 -124 _c
155 325 _l
159 337 162 353 162 373 _c
162 401 152 416 133 416 _c
112 416 96 403 86 378 _c
76 353 66 322 57 284 _c
57 280 54 278 49 278 _c
37 278 _l
35 278 34 279 32 281 _c
30 283 29 286 29 288 _c
}_e{36 317 43 342 50 362 _c
56 382 67 400 81 417 _c
95 433 112 442 134 442 _c
156 442 176 435 194 422 _c
211 409 222 392 227 370 _c
245 391 265 408 287 422 _c
309 435 332 442 356 442 _c
384 442 408 434 429 419 _c
449 404 465 384 475 360 _c
485 336 491 310 491 282 _c
491 239 480 195 458 149 _c
436 103 406 65 369 35 _c
331 5 291 -10 248 -10 _c
}_e{228 -10 211 -4 195 6 _c
179 16 166 31 158 49 _c
113 -128 _l
111 -138 110 -143 110 -145 _c
110 -153 132 -158 176 -158 _c
182 -158 186 -162 186 -171 _c
184 -179 182 -185 180 -188 _c
178 -191 175 -193 169 -193 _c
-24 -193 _l
249 15 _m
272 15 293 24 313 43 _c
333 62 349 84 362 108 _c
370 126 379 147 387 173 _c
395 199 402 226 408 256 _c
414 285 417 308 417 326 _c
}_e{417 341 415 355 411 369 _c
407 382 400 393 391 402 _c
381 411 369 416 354 416 _c
329 416 306 407 284 390 _c
262 372 243 351 226 325 _c
226 322 _l
171 101 _l
175 77 184 56 197 40 _c
210 23 227 15 249 15 _c
_cl}_e}_d
end readonly def

/BuildGlyph
 {exch begin
 CharStrings exch
 2 copy known not{pop /.notdef}if
 true 3 1 roll get exec
 end}_d

/BuildChar {
 1 index /Encoding get exch get
 1 index /BuildGlyph get exec
}_d

FontName currentdict end definefont pop
%!PS-Adobe-3.0 Resource-Font
%%Title: DejaVu Sans
%%Copyright: Copyright (c) 2003 by Bitstream, Inc. All Rights Reserved. Copyright (c) 2006 by Tavmjong Bah. All Rights Reserved. DejaVu changes are in public domain 
%%Creator: Converted from TrueType to type 3 by PPR
25 dict begin
/_d{bind def}bind def
/_m{moveto}_d
/_l{lineto}_d
/_cl{closepath eofill}_d
/_c{curveto}_d
/_sc{7 -1 roll{setcachedevice}{pop pop pop pop pop pop}ifelse}_d
/_e{exec}_d
/FontName /DejaVuSans def
/PaintType 0 def
/FontMatrix[.001 0 0 .001 0 0]def
/FontBBox[-1021 -463 1793 1232]def
/FontType 3 def
/Encoding [ /A /F /M /P /S /a /b /d /g /i /l /n /o /s /t /u /dieresis /udieresis ] def
/FontInfo 10 dict dup begin
/FamilyName (DejaVu Sans) def
/FullName (DejaVu Sans) def
/Notice (Copyright (c) 2003 by Bitstream, Inc. All Rights Reserved. Copyright (c) 2006 by Tavmjong Bah. All Rights Reserved. DejaVu changes are in public domain ) def
/Weight (Book) def
/Version (Version 2.35) def
/ItalicAngle 0.0 def
/isFixedPitch false def
/UnderlinePosition -130 def
/UnderlineThickness 90 def
end readonly def
/CharStrings 18 dict dup begin
/A{684 0 8 0 676 729 _sc
342 632 _m
208 269 _l
476 269 _l
342 632 _l
286 729 _m
398 729 _l
676 0 _l
573 0 _l
507 187 _l
178 187 _l
112 0 _l
8 0 _l
286 729 _l
_cl}_d
/F{575 0 98 0 517 729 _sc
98 729 _m
517 729 _l
517 646 _l
197 646 _l
197 431 _l
486 431 _l
486 348 _l
197 348 _l
197 0 _l
98 0 _l
98 729 _l
_cl}_d
/M{863 0 98 0 765 729 _sc
98 729 _m
245 729 _l
431 233 _l
618 729 _l
765 729 _l
765 0 _l
669 0 _l
669 640 _l
481 140 _l
382 140 _l
194 640 _l
194 0 _l
98 0 _l
98 729 _l
_cl}_d
/P{603 0 98 0 569 729 _sc
197 648 _m
197 374 _l
321 374 _l
367 374 402 385 427 409 _c
452 433 465 467 465 511 _c
465 555 452 588 427 612 _c
402 636 367 648 321 648 _c
197 648 _l
98 729 _m
321 729 _l
402 729 464 710 506 673 _c
548 636 569 582 569 511 _c
569 439 548 384 506 348 _c
464 311 402 293 321 293 _c
197 293 _l
197 0 _l
98 0 _l
98 729 _l
_cl}_d
/S{{635 0 66 -13 579 742 _sc
535 705 _m
535 609 _l
497 627 462 640 429 649 _c
395 657 363 662 333 662 _c
279 662 237 651 208 631 _c
179 610 165 580 165 542 _c
165 510 174 485 194 469 _c
213 452 250 439 304 429 _c
364 417 _l
437 403 491 378 526 343 _c
561 307 579 260 579 201 _c
579 130 555 77 508 41 _c
460 5 391 -13 300 -13 _c
265 -13 228 -9 189 -2 _c
}_e{150 5 110 16 69 32 _c
69 134 _l
109 111 148 94 186 83 _c
224 71 262 66 300 66 _c
356 66 399 77 430 99 _c
460 121 476 152 476 194 _c
476 230 465 258 443 278 _c
421 298 385 313 335 323 _c
275 335 _l
201 349 148 372 115 404 _c
82 435 66 478 66 534 _c
66 598 88 649 134 686 _c
179 723 242 742 322 742 _c
356 742 390 739 426 733 _c
461 727 497 717 535 705 _c
}_e{_cl}_e}_d
/a{{613 0 60 -13 522 560 _sc
343 275 _m
270 275 220 266 192 250 _c
164 233 150 205 150 165 _c
150 133 160 107 181 89 _c
202 70 231 61 267 61 _c
317 61 357 78 387 114 _c
417 149 432 196 432 255 _c
432 275 _l
343 275 _l
522 312 _m
522 0 _l
432 0 _l
432 83 _l
411 49 385 25 355 10 _c
325 -5 287 -13 243 -13 _c
187 -13 142 2 109 33 _c
76 64 60 106 60 159 _c
}_e{60 220 80 266 122 298 _c
163 329 224 345 306 345 _c
432 345 _l
432 354 _l
432 395 418 427 391 450 _c
364 472 326 484 277 484 _c
245 484 215 480 185 472 _c
155 464 127 453 100 439 _c
100 522 _l
132 534 164 544 195 550 _c
226 556 256 560 286 560 _c
365 560 424 539 463 498 _c
502 457 522 395 522 312 _c
_cl}_e}_d
/b{{635 0 91 -13 580 760 _sc
487 273 _m
487 339 473 390 446 428 _c
418 466 381 485 334 485 _c
286 485 249 466 222 428 _c
194 390 181 339 181 273 _c
181 207 194 155 222 117 _c
249 79 286 61 334 61 _c
381 61 418 79 446 117 _c
473 155 487 207 487 273 _c
181 464 _m
199 496 223 520 252 536 _c
281 552 316 560 356 560 _c
422 560 476 533 518 481 _c
559 428 580 359 580 273 _c
}_e{580 187 559 117 518 65 _c
476 13 422 -13 356 -13 _c
316 -13 281 -5 252 10 _c
223 25 199 49 181 82 _c
181 0 _l
91 0 _l
91 760 _l
181 760 _l
181 464 _l
_cl}_e}_d
/d{{635 0 55 -13 544 760 _sc
454 464 _m
454 760 _l
544 760 _l
544 0 _l
454 0 _l
454 82 _l
435 49 411 25 382 10 _c
353 -5 319 -13 279 -13 _c
213 -13 159 13 117 65 _c
75 117 55 187 55 273 _c
55 359 75 428 117 481 _c
159 533 213 560 279 560 _c
319 560 353 552 382 536 _c
411 520 435 496 454 464 _c
148 273 _m
148 207 161 155 188 117 _c
215 79 253 61 301 61 _c
}_e{348 61 385 79 413 117 _c
440 155 454 207 454 273 _c
454 339 440 390 413 428 _c
385 466 348 485 301 485 _c
253 485 215 466 188 428 _c
161 390 148 339 148 273 _c
_cl}_e}_d
/g{{635 0 55 -207 544 560 _sc
454 280 _m
454 344 440 395 414 431 _c
387 467 349 485 301 485 _c
253 485 215 467 188 431 _c
161 395 148 344 148 280 _c
148 215 161 165 188 129 _c
215 93 253 75 301 75 _c
349 75 387 93 414 129 _c
440 165 454 215 454 280 _c
544 68 _m
544 -24 523 -93 482 -139 _c
440 -184 377 -207 292 -207 _c
260 -207 231 -204 203 -200 _c
175 -195 147 -188 121 -178 _c
}_e{121 -91 _l
147 -105 173 -115 199 -122 _c
225 -129 251 -133 278 -133 _c
336 -133 380 -117 410 -87 _c
439 -56 454 -10 454 52 _c
454 96 _l
435 64 411 40 382 24 _c
353 8 319 0 279 0 _c
211 0 157 25 116 76 _c
75 127 55 195 55 280 _c
55 364 75 432 116 483 _c
157 534 211 560 279 560 _c
319 560 353 552 382 536 _c
411 520 435 496 454 464 _c
454 547 _l
544 547 _l
}_e{544 68 _l
_cl}_e}_d
/i{278 0 94 0 184 760 _sc
94 547 _m
184 547 _l
184 0 _l
94 0 _l
94 547 _l
94 760 _m
184 760 _l
184 646 _l
94 646 _l
94 760 _l
_cl}_d
/l{278 0 94 0 184 760 _sc
94 760 _m
184 760 _l
184 0 _l
94 0 _l
94 760 _l
_cl}_d
/n{634 0 91 0 549 560 _sc
549 330 _m
549 0 _l
459 0 _l
459 327 _l
459 379 448 417 428 443 _c
408 469 378 482 338 482 _c
289 482 251 466 223 435 _c
195 404 181 362 181 309 _c
181 0 _l
91 0 _l
91 547 _l
181 547 _l
181 462 _l
202 494 227 519 257 535 _c
286 551 320 560 358 560 _c
420 560 468 540 500 501 _c
532 462 549 405 549 330 _c
_cl}_d
/o{612 0 55 -13 557 560 _sc
306 484 _m
258 484 220 465 192 427 _c
164 389 150 338 150 273 _c
150 207 163 156 191 118 _c
219 80 257 62 306 62 _c
354 62 392 80 420 118 _c
448 156 462 207 462 273 _c
462 337 448 389 420 427 _c
392 465 354 484 306 484 _c
306 560 _m
384 560 445 534 490 484 _c
534 433 557 363 557 273 _c
557 183 534 113 490 63 _c
445 12 384 -13 306 -13 _c
227 -13 165 12 121 63 _c
77 113 55 183 55 273 _c
55 363 77 433 121 484 _c
165 534 227 560 306 560 _c
_cl}_d
/s{{521 0 54 -13 472 560 _sc
443 531 _m
443 446 _l
417 458 391 468 364 475 _c
336 481 308 485 279 485 _c
234 485 200 478 178 464 _c
156 450 145 430 145 403 _c
145 382 153 366 169 354 _c
185 342 217 330 265 320 _c
296 313 _l
360 299 405 279 432 255 _c
458 230 472 195 472 151 _c
472 100 452 60 412 31 _c
372 1 316 -13 246 -13 _c
216 -13 186 -10 154 -5 _c
}_e{122 0 89 8 54 20 _c
54 113 _l
87 95 120 82 152 74 _c
184 65 216 61 248 61 _c
290 61 323 68 346 82 _c
368 96 380 117 380 144 _c
380 168 371 187 355 200 _c
339 213 303 226 247 238 _c
216 245 _l
160 257 119 275 95 299 _c
70 323 58 356 58 399 _c
58 450 76 490 112 518 _c
148 546 200 560 268 560 _c
301 560 332 557 362 552 _c
391 547 418 540 443 531 _c
}_e{_cl}_e}_d
/t{392 0 27 0 368 702 _sc
183 702 _m
183 547 _l
368 547 _l
368 477 _l
183 477 _l
183 180 _l
183 135 189 106 201 94 _c
213 81 238 75 276 75 _c
368 75 _l
368 0 _l
276 0 _l
206 0 158 13 132 39 _c
106 65 93 112 93 180 _c
93 477 _l
27 477 _l
27 547 _l
93 547 _l
93 702 _l
183 702 _l
_cl}_d
/u{634 0 85 -13 543 560 _sc
85 216 _m
85 547 _l
175 547 _l
175 219 _l
175 167 185 129 205 103 _c
225 77 255 64 296 64 _c
344 64 383 79 411 110 _c
439 141 453 183 453 237 _c
453 547 _l
543 547 _l
543 0 _l
453 0 _l
453 84 _l
431 50 405 26 377 10 _c
348 -5 315 -13 277 -13 _c
214 -13 166 6 134 45 _c
101 83 85 140 85 216 _c
311 560 _m
311 560 _l
_cl}_d
/dieresis{500 0 105 659 395 758 _sc
296 758 _m
395 758 _l
395 659 _l
296 659 _l
296 758 _l
105 758 _m
204 758 _l
204 659 _l
105 659 _l
105 758 _l
_cl}_d
/udieresis{634 0 85 -13 543 758 _sc
false CharStrings /u get exec
gsave 60 0 translate
false CharStrings /dieresis get exec
grestore }_d
end readonly def

/BuildGlyph
 {exch begin
 CharStrings exch
 2 copy known not{pop /.notdef}if
 true 3 1 roll get exec
 end}_d

/BuildChar {
 1 index /Encoding get exch get
 1 index /BuildGlyph get exec
}_d

FontName currentdict end definefont pop
end
%%EndProlog
mpldict begin
18 180 translate
576 432 0 0 clipbox
gsave
0 0 m
576 0 l
576 432 l
0 432 l
cl
1.000 setgray
fill
grestore
gsave
72 56.16 m
518.4 56.16 l
518.4 401.76 l
72 401.76 l
cl
1.000 setgray
fill
grestore
1.000 setlinewidth
1 setlinejoin
0 setlinecap
[6 6] 0 setdash
0.667 setgray
gsave
446.4 345.6 72 56.16 clipbox
72 56.16 m
72 401.76 l
stroke
grestore
gsave
446.4 345.6 72 56.16 clipbox
131.57 56.16 m
131.57 401.76 l
stroke
grestore
gsave
446.4 345.6 72 56.16 clipbox
191.139 56.16 m
191.139 401.76 l
stroke
grestore
gsave
446.4 345.6 72 56.16 clipbox
250.709 56.16 m
250.709 401.76 l
stroke
grestore
gsave
446.4 345.6 72 56.16 clipbox
310.279 56.16 m
310.279 401.76 l
stroke
grestore
gsave
446.4 345.6 72 56.16 clipbox
369.848 56.16 m
369.848 401.76 l
stroke
grestore
gsave
446.4 345.6 72 56.16 clipbox
429.418 56.16 m
429.418 401.76 l
stroke
grestore
gsave
446.4 345.6 72 56.16 clipbox
488.987 56.16 m
488.987 401.76 l
stroke
grestore
0.000 setgray
gsave
281.200000 39.160000 translate
0.000000 rotate
/Cmmi10 findfont
16.0 scalefont
setfont
0.000000 0.546875 moveto
/A glyphshow

12.000000 0.546875 moveto
/e glyphshow

19.437500 0.546875 moveto
/g glyphshow


grestore
gsave
63.000000 190.460000 translate
90.000000 rotate
/Cmmi10 findfont
16.0 scalefont
setfont
0.000000 0.546875 moveto
/A glyphshow

12.000000 0.546875 moveto
/m glyphshow

26.046875 0.546875 moveto
/p glyphshow

34.093750 0.546875 moveto
/l glyphshow

38.859375 0.546875 moveto
/i glyphshow

44.367188 0.546875 moveto
/t glyphshow

50.140625 0.546875 moveto
/u glyphshow

59.289062 0.546875 moveto
/u glyphshow

68.437500 0.546875 moveto
/d glyphshow


grestore
3.000 setlinewidth
2 setlinecap
[] 0 setdash
0.000 0.000 1.000 setrgbcolor
gsave
446.4 345.6 72 56.16 clipbox
72 352.389 m
131.197 352.389 l
131.57 401.76 l
190.767 401.76 l
191.139 352.389 l
250.337 352.389 l
250.709 401.76 l
309.906 401.76 l
310.279 352.389 l
369.476 352.389 l
369.848 401.76 l
429.046 401.76 l
429.418 352.389 l
488.615 352.389 l
488.987 401.76 l
518.4 401.76 l
518.4 401.76 l
stroke
grestore
1.000 setlinewidth
1.000 0.000 0.000 setrgbcolor
gsave
446.4 345.6 72 56.16 clipbox
72 311.246 m
73.1169 311.081 l
74.2339 310.594 l
75.3508 309.805 l
76.4677 308.743 l
77.957 306.981 l
79.8185 304.4 l
83.9139 298.608 l
85.4032 296.931 l
86.5201 295.951 l
87.637 295.253 l
88.754 294.866 l
89.8709 294.805 l
90.9878 295.072 l
92.1048 295.656 l
93.2217 296.535 l
94.3386 297.673 l
95.8279 299.514 l
98.0617 302.694 l
101.04 306.925 l
102.529 308.697 l
103.646 309.768 l
104.763 310.569 l
105.88 311.068 l
106.997 311.245 l
108.114 311.094 l
109.231 310.619 l
110.348 309.841 l
111.465 308.79 l
112.954 307.038 l
114.816 304.464 l
118.911 298.663 l
120.4 296.975 l
121.517 295.984 l
122.634 295.275 l
123.751 294.875 l
124.868 294.801 l
125.985 295.055 l
127.102 295.628 l
128.219 296.496 l
129.336 297.624 l
130.825 299.455 l
131.197 299.958 l
131.57 287.76 l
137.154 334.338 l
138.271 341.304 l
139.388 346.74 l
140.133 349.404 l
140.877 351.241 l
141.25 351.84 l
141.622 352.221 l
141.994 352.382 l
142.367 352.324 l
142.739 352.046 l
143.111 351.55 l
143.856 349.912 l
144.601 347.439 l
145.345 344.175 l
146.462 337.928 l
147.579 330.285 l
149.068 318.458 l
154.653 271.846 l
155.77 264.852 l
156.887 259.384 l
157.631 256.697 l
158.376 254.835 l
158.748 254.224 l
159.121 253.83 l
159.493 253.655 l
159.865 253.701 l
160.238 253.966 l
160.61 254.449 l
161.354 256.062 l
162.099 258.511 l
162.844 261.752 l
163.961 267.969 l
165.078 275.588 l
166.567 287.392 l
172.151 334.037 l
173.268 341.058 l
174.385 346.559 l
175.13 349.269 l
175.875 351.157 l
176.247 351.781 l
176.619 352.187 l
176.991 352.375 l
177.364 352.343 l
177.736 352.09 l
178.108 351.62 l
178.853 350.032 l
179.598 347.607 l
180.342 344.388 l
181.459 338.201 l
182.576 330.607 l
184.065 318.826 l
189.65 272.148 l
190.767 265.1 l
191.139 296.36 l
192.256 295.531 l
193.373 295.001 l
194.49 294.792 l
195.607 294.911 l
196.724 295.355 l
197.841 296.104 l
198.958 297.131 l
200.447 298.856 l
202.309 301.412 l
206.404 307.234 l
207.893 308.949 l
209.01 309.965 l
210.127 310.703 l
211.244 311.134 l
212.361 311.241 l
213.478 311.018 l
214.595 310.476 l
215.712 309.636 l
216.829 308.531 l
218.318 306.724 l
220.552 303.566 l
223.53 299.31 l
225.02 297.503 l
226.136 296.398 l
227.253 295.558 l
228.37 295.016 l
229.487 294.794 l
230.604 294.9 l
231.721 295.331 l
232.838 296.07 l
233.955 297.086 l
235.444 298.801 l
237.306 301.348 l
241.401 307.178 l
242.89 308.904 l
244.007 309.93 l
245.124 310.68 l
246.241 311.123 l
247.358 311.243 l
248.475 311.033 l
249.592 310.503 l
250.337 309.982 l
250.709 342.959 l
251.826 336.388 l
252.943 328.482 l
254.432 316.419 l
259.272 275.427 l
260.389 267.833 l
261.506 261.646 l
262.251 258.428 l
262.995 256.003 l
263.74 254.415 l
264.112 253.944 l
264.484 253.692 l
264.857 253.659 l
265.229 253.847 l
265.601 254.254 l
266.346 255.716 l
267.091 258.02 l
267.835 261.125 l
268.952 267.16 l
270.069 274.628 l
271.558 286.293 l
274.537 312.268 l
276.398 327.647 l
277.888 338.065 l
279.005 344.282 l
279.749 347.523 l
280.494 349.972 l
281.238 351.585 l
281.611 352.069 l
281.983 352.334 l
282.355 352.379 l
282.728 352.204 l
283.1 351.811 l
283.472 351.2 l
284.217 349.337 l
284.961 346.65 l
285.706 343.186 l
286.823 336.673 l
287.94 328.814 l
289.429 316.791 l
294.269 275.749 l
295.386 268.106 l
296.503 261.859 l
297.248 258.595 l
297.992 256.122 l
298.737 254.484 l
299.109 253.988 l
299.482 253.71 l
299.854 253.652 l
300.226 253.814 l
300.598 254.194 l
300.971 254.793 l
301.715 256.63 l
302.46 259.294 l
303.205 262.736 l
304.322 269.22 l
305.439 277.055 l
306.928 289.057 l
309.906 315.107 l
310.279 305.56 l
312.14 307.984 l
313.629 309.539 l
314.746 310.407 l
315.863 310.979 l
316.98 311.233 l
318.097 311.159 l
319.214 310.759 l
320.331 310.05 l
321.448 309.06 l
322.937 307.372 l
324.799 304.844 l
329.266 298.527 l
330.756 296.866 l
331.873 295.902 l
332.989 295.222 l
334.106 294.853 l
335.223 294.811 l
336.34 295.098 l
337.457 295.7 l
338.574 296.595 l
339.691 297.747 l
341.18 299.602 l
343.414 302.791 l
346.393 307.01 l
347.882 308.767 l
348.999 309.823 l
350.116 310.607 l
351.233 311.088 l
352.35 311.246 l
353.467 311.075 l
354.583 310.582 l
355.7 309.786 l
356.817 308.72 l
358.307 306.953 l
360.168 304.368 l
363.891 299.053 l
365.38 297.291 l
366.497 296.23 l
367.614 295.44 l
368.731 294.953 l
369.476 294.807 l
369.848 253.646 l
370.221 253.756 l
370.593 254.085 l
370.965 254.633 l
371.71 256.371 l
372.454 258.939 l
373.199 262.292 l
374.316 268.659 l
375.433 276.399 l
376.922 288.315 l
382.134 332.193 l
383.251 339.534 l
384.368 345.414 l
385.113 348.405 l
385.858 350.587 l
386.602 351.923 l
386.974 352.265 l
387.347 352.388 l
387.719 352.291 l
388.091 351.975 l
388.464 351.44 l
389.208 349.727 l
389.953 347.182 l
390.698 343.851 l
391.815 337.515 l
392.931 329.798 l
394.421 317.905 l
399.633 273.998 l
400.75 266.631 l
401.867 260.72 l
402.612 257.706 l
403.356 255.499 l
404.101 254.138 l
404.473 253.783 l
404.845 253.647 l
405.218 253.731 l
405.59 254.035 l
405.962 254.557 l
406.707 256.245 l
407.452 258.766 l
408.196 262.074 l
409.313 268.381 l
410.43 276.073 l
411.919 287.945 l
417.132 331.88 l
418.249 339.271 l
419.365 345.214 l
420.11 348.251 l
420.855 350.482 l
421.599 351.868 l
421.972 352.236 l
422.344 352.385 l
422.716 352.314 l
423.089 352.023 l
423.461 351.514 l
424.206 349.851 l
424.95 347.354 l
425.695 344.068 l
426.812 337.791 l
427.929 330.123 l
429.046 321.372 l
429.418 305.56 l
435.003 297.797 l
436.492 296.304 l
437.609 295.491 l
438.726 294.98 l
439.843 294.79 l
440.959 294.928 l
442.076 295.39 l
443.193 296.157 l
444.31 297.199 l
445.799 298.94 l
447.661 301.507 l
451.756 307.317 l
453.246 309.015 l
454.363 310.016 l
455.48 310.737 l
456.596 311.149 l
457.713 311.237 l
458.83 310.995 l
459.947 310.435 l
461.064 309.578 l
462.181 308.459 l
463.67 306.637 l
465.904 303.469 l
468.883 299.224 l
470.372 297.432 l
471.489 296.341 l
472.606 295.518 l
473.723 294.994 l
474.84 294.791 l
475.957 294.917 l
477.074 295.366 l
478.19 296.122 l
479.307 297.153 l
480.797 298.884 l
482.658 301.443 l
486.754 307.261 l
488.243 308.971 l
488.615 309.337 l
488.987 342.959 l
489.732 346.467 l
490.477 349.201 l
491.221 351.113 l
491.966 352.169 l
492.338 352.37 l
492.711 352.35 l
493.083 352.111 l
493.455 351.653 l
494.2 350.091 l
494.944 347.69 l
495.689 344.494 l
496.806 338.337 l
497.923 330.768 l
499.412 319.01 l
504.997 272.3 l
506.114 265.224 l
507.231 259.66 l
507.975 256.902 l
508.72 254.965 l
509.465 253.883 l
509.837 253.67 l
510.209 253.677 l
510.581 253.903 l
510.954 254.348 l
511.698 255.886 l
512.443 258.262 l
513.188 261.436 l
514.305 267.562 l
515.422 275.106 l
516.911 286.841 l
518.4 299.723 l
518.4 299.723 l
stroke
grestore
0.000 0.500 0.000 setrgbcolor
gsave
446.4 345.6 72 56.16 clipbox
72 253.646 m
72.3723 253.536 l
72.7446 253.206 l
73.1169 252.659 l
73.8616 250.921 l
74.6062 248.352 l
75.3508 244.999 l
76.4677 238.632 l
77.5847 230.892 l
79.0739 218.977 l
84.2862 175.098 l
85.4032 167.758 l
86.5201 161.877 l
87.2647 158.887 l
88.0093 156.704 l
88.754 155.368 l
89.1263 155.026 l
89.4986 154.903 l
89.8709 155 l
90.2432 155.317 l
90.6155 155.851 l
91.3601 157.565 l
92.1048 160.109 l
92.8494 163.44 l
93.9663 169.777 l
95.0832 177.493 l
96.5725 189.387 l
101.785 233.294 l
102.902 240.66 l
104.019 246.572 l
104.763 249.585 l
105.508 251.792 l
106.253 253.153 l
106.625 253.508 l
106.997 253.644 l
107.369 253.56 l
107.742 253.256 l
108.114 252.735 l
108.859 251.046 l
109.603 248.526 l
110.348 245.217 l
111.465 238.91 l
112.582 231.218 l
114.071 219.346 l
119.283 175.412 l
120.4 168.02 l
121.517 162.077 l
122.262 159.041 l
123.007 156.809 l
123.751 155.423 l
124.123 155.055 l
124.496 154.906 l
124.868 154.977 l
125.24 155.268 l
125.613 155.777 l
126.357 157.441 l
127.102 159.937 l
127.847 163.223 l
128.963 169.501 l
130.08 177.168 l
131.197 185.919 l
133.804 239.22 l
134.548 248.712 l
134.92 251.666 l
135.293 253.306 l
135.665 253.585 l
136.037 252.497 l
136.41 250.07 l
136.782 246.373 l
137.527 235.61 l
138.644 213.469 l
140.505 174.535 l
141.25 163.272 l
141.622 159.276 l
141.994 156.528 l
142.367 155.105 l
142.739 155.046 l
143.111 156.353 l
143.484 158.989 l
144.228 167.923 l
144.973 180.863 l
147.951 241.04 l
148.696 249.801 l
149.068 252.34 l
149.441 253.545 l
149.813 253.384 l
150.185 251.86 l
150.557 249.015 l
151.302 239.716 l
152.047 226.511 l
155.025 166.638 l
155.77 158.251 l
156.142 155.923 l
156.514 154.937 l
156.887 155.319 l
157.259 157.059 l
157.631 160.109 l
158.376 169.767 l
159.121 183.228 l
162.099 242.754 l
162.844 250.76 l
163.216 252.876 l
163.588 253.643 l
163.961 253.041 l
164.333 251.085 l
164.705 247.832 l
165.45 237.822 l
166.194 224.115 l
168.801 170.485 l
169.545 160.563 l
169.918 157.359 l
170.29 155.457 l
170.662 154.91 l
171.035 155.732 l
171.407 157.901 l
171.779 161.356 l
172.524 171.71 l
173.641 193.501 l
175.502 232.712 l
176.247 244.357 l
176.991 251.585 l
177.364 253.272 l
177.736 253.599 l
178.108 252.557 l
178.481 250.177 l
178.853 246.522 l
179.598 235.831 l
180.715 213.751 l
182.576 174.765 l
183.321 163.433 l
183.693 159.395 l
184.065 156.602 l
184.438 155.132 l
184.81 155.025 l
185.182 156.285 l
185.555 158.876 l
186.299 167.73 l
187.044 180.611 l
190.022 240.848 l
190.767 249.689 l
191.512 251.863 l
192.256 253.19 l
192.629 253.527 l
193.001 253.646 l
193.373 253.544 l
193.745 253.222 l
194.118 252.683 l
194.862 250.961 l
195.607 248.408 l
196.352 245.069 l
197.469 238.721 l
198.585 230.996 l
200.075 219.094 l
205.287 175.198 l
206.404 167.841 l
207.521 161.941 l
208.266 158.936 l
209.01 156.738 l
209.755 155.386 l
210.127 155.035 l
210.499 154.904 l
210.872 154.993 l
211.244 155.301 l
211.616 155.828 l
212.361 157.525 l
213.106 160.054 l
213.85 163.371 l
214.967 169.689 l
216.084 177.39 l
217.573 189.269 l
222.786 233.194 l
223.903 240.577 l
225.02 246.508 l
225.764 249.536 l
226.509 251.758 l
227.253 253.136 l
227.626 253.499 l
227.998 253.643 l
228.37 253.567 l
228.743 253.272 l
229.115 252.758 l
229.86 251.086 l
230.604 248.58 l
231.349 245.286 l
232.466 238.998 l
233.583 231.321 l
235.072 219.464 l
240.657 172.899 l
241.773 165.943 l
242.89 160.519 l
243.635 157.864 l
244.38 156.035 l
244.752 155.441 l
245.124 155.065 l
245.497 154.908 l
245.869 154.971 l
246.241 155.253 l
246.614 155.755 l
247.358 157.402 l
248.103 159.883 l
248.847 163.155 l
249.964 169.413 l
250.337 171.823 l
251.454 193.648 l
253.315 232.834 l
254.06 244.444 l
254.804 251.628 l
255.177 253.29 l
255.549 253.592 l
255.921 252.526 l
256.294 250.121 l
256.666 246.445 l
257.411 235.716 l
258.527 213.604 l
260.389 174.645 l
261.134 163.349 l
261.506 159.333 l
261.878 156.563 l
262.251 155.118 l
262.623 155.036 l
262.995 156.32 l
263.367 158.935 l
264.112 167.831 l
264.857 180.743 l
267.835 240.948 l
268.58 249.748 l
268.952 252.308 l
269.324 253.536 l
269.697 253.398 l
270.069 251.896 l
270.441 249.073 l
271.186 239.811 l
271.931 226.633 l
274.909 166.727 l
275.654 158.301 l
276.026 155.951 l
276.398 154.942 l
276.771 155.301 l
277.143 157.019 l
277.515 160.048 l
278.26 169.669 l
279.005 183.104 l
281.983 242.668 l
282.728 250.714 l
283.1 252.852 l
283.472 253.642 l
283.845 253.062 l
284.217 251.129 l
284.589 247.896 l
285.334 237.922 l
286.078 224.241 l
288.685 170.586 l
289.429 160.627 l
289.802 157.402 l
290.174 155.478 l
290.546 154.908 l
290.918 155.707 l
291.291 157.854 l
291.663 161.289 l
292.408 171.607 l
293.525 193.367 l
295.386 232.6 l
296.131 244.277 l
296.875 251.545 l
297.248 253.254 l
297.62 253.604 l
297.992 252.586 l
298.365 250.227 l
298.737 246.593 l
299.482 235.937 l
300.598 213.886 l
302.46 174.875 l
303.205 163.51 l
303.577 159.452 l
303.949 156.638 l
304.322 155.145 l
304.694 155.015 l
305.066 156.253 l
305.439 158.822 l
305.811 162.653 l
306.555 173.639 l
307.672 195.965 l
309.534 234.727 l
309.906 240.755 l
311.023 246.644 l
311.768 249.641 l
312.512 251.83 l
313.257 253.173 l
313.629 253.519 l
314.002 253.645 l
314.374 253.552 l
314.746 253.238 l
315.119 252.707 l
315.863 251.001 l
316.608 248.463 l
317.352 245.138 l
318.469 238.809 l
319.586 231.1 l
321.076 219.212 l
326.288 175.297 l
327.405 167.924 l
328.522 162.004 l
329.266 158.985 l
330.011 156.771 l
330.756 155.403 l
331.128 155.044 l
331.5 154.905 l
331.873 154.985 l
332.245 155.286 l
332.617 155.804 l
333.362 157.485 l
334.106 160 l
334.851 163.302 l
335.968 169.601 l
337.085 177.286 l
338.574 189.152 l
343.786 233.094 l
344.903 240.493 l
346.02 246.444 l
346.765 249.486 l
347.51 251.724 l
348.254 253.118 l
348.627 253.489 l
348.999 253.642 l
349.371 253.574 l
349.743 253.287 l
350.116 252.781 l
350.86 251.125 l
351.605 248.635 l
352.35 245.355 l
353.467 239.085 l
354.583 231.425 l
356.073 219.581 l
361.657 172.995 l
362.774 166.021 l
363.891 160.576 l
364.636 157.906 l
365.38 156.062 l
365.753 155.46 l
366.125 155.075 l
366.497 154.91 l
366.87 154.964 l
367.242 155.239 l
367.614 155.732 l
368.359 157.363 l
369.104 159.829 l
369.476 161.362 l
370.221 171.72 l
371.337 193.514 l
373.199 232.722 l
373.944 244.364 l
374.688 251.588 l
375.061 253.273 l
375.433 253.598 l
375.805 252.555 l
376.177 250.172 l
376.55 246.516 l
377.294 235.821 l
378.411 213.739 l
380.273 174.754 l
381.018 163.426 l
381.39 159.39 l
381.762 156.599 l
382.134 155.131 l
382.507 155.026 l
382.879 156.288 l
383.251 158.881 l
383.996 167.738 l
384.741 180.622 l
387.719 240.856 l
388.464 249.694 l
388.836 252.277 l
389.208 253.527 l
389.581 253.411 l
389.953 251.932 l
390.325 249.131 l
391.07 239.906 l
391.815 226.756 l
394.793 166.816 l
395.538 158.351 l
395.91 155.98 l
396.282 154.948 l
396.655 155.284 l
397.027 156.98 l
397.399 159.987 l
398.144 169.571 l
398.888 182.98 l
401.867 242.581 l
402.612 250.667 l
402.984 252.827 l
403.356 253.64 l
403.728 253.083 l
404.101 251.172 l
404.473 247.96 l
405.218 238.023 l
405.962 224.366 l
408.568 170.686 l
409.313 160.691 l
409.685 157.445 l
410.058 155.499 l
410.43 154.906 l
410.802 155.683 l
411.175 157.807 l
411.547 161.221 l
412.292 171.505 l
413.036 185.399 l
415.642 238.821 l
416.387 248.464 l
416.759 251.506 l
417.132 253.237 l
417.504 253.61 l
417.876 252.614 l
418.249 250.277 l
418.621 246.664 l
419.365 236.042 l
420.482 214.02 l
422.344 174.985 l
423.089 163.587 l
423.461 159.51 l
423.833 156.674 l
424.206 155.159 l
424.578 155.007 l
424.95 156.221 l
425.322 158.769 l
425.695 162.579 l
426.439 173.532 l
427.556 195.83 l
429.046 227.734 l
430.535 238.365 l
431.652 244.789 l
432.396 248.184 l
433.141 250.798 l
433.886 252.584 l
434.258 253.155 l
434.63 253.51 l
435.003 253.644 l
435.375 253.559 l
435.747 253.254 l
436.119 252.731 l
436.864 251.041 l
437.609 248.518 l
438.353 245.207 l
439.47 238.898 l
440.587 231.204 l
442.076 219.33 l
447.289 175.398 l
448.406 168.008 l
449.523 162.068 l
450.267 159.034 l
451.012 156.805 l
451.756 155.421 l
452.129 155.054 l
452.501 154.906 l
452.873 154.978 l
453.246 155.27 l
453.618 155.781 l
454.363 157.446 l
455.107 159.945 l
455.852 163.233 l
456.969 169.513 l
458.086 177.183 l
459.575 189.034 l
465.16 235.608 l
466.277 242.572 l
467.393 248.005 l
468.138 250.667 l
468.883 252.502 l
469.255 253.1 l
469.627 253.479 l
470 253.64 l
470.372 253.58 l
470.744 253.301 l
471.117 252.804 l
471.861 251.164 l
472.606 248.689 l
473.35 245.423 l
474.467 239.173 l
475.584 231.528 l
477.074 219.699 l
482.658 173.09 l
483.775 166.099 l
484.892 160.633 l
485.637 157.949 l
486.381 156.088 l
486.754 155.478 l
487.126 155.086 l
487.498 154.912 l
487.871 154.958 l
488.243 155.225 l
488.615 155.709 l
488.987 157.858 l
489.36 161.295 l
490.104 171.617 l
491.221 193.38 l
493.083 232.61 l
493.828 244.284 l
494.572 251.549 l
494.944 253.256 l
495.317 253.604 l
495.689 252.583 l
496.061 250.222 l
496.434 246.587 l
497.178 235.927 l
498.295 213.873 l
500.157 174.864 l
500.901 163.503 l
501.274 159.447 l
501.646 156.635 l
502.018 155.144 l
502.391 155.017 l
502.763 156.256 l
503.135 158.827 l
503.508 162.659 l
504.252 173.649 l
505.369 195.978 l
507.231 234.737 l
507.975 245.778 l
508.348 249.64 l
508.72 252.244 l
509.092 253.518 l
509.465 253.424 l
509.837 251.968 l
510.209 249.188 l
510.954 240.001 l
511.698 226.877 l
514.677 166.906 l
515.422 158.402 l
515.794 156.008 l
516.166 154.953 l
516.538 155.267 l
516.911 156.94 l
517.283 159.927 l
518.028 169.474 l
518.4 175.77 l
518.4 175.77 l
stroke
grestore
0.000 setgray
gsave
446.4 345.6 72 56.16 clipbox
72 154.903 m
72.3723 154.793 l
72.7446 154.463 l
73.1169 153.916 l
73.8616 152.178 l
74.6062 149.609 l
75.3508 146.256 l
76.4677 139.89 l
77.5847 132.149 l
79.0739 120.234 l
84.2862 76.355 l
85.4032 69.0149 l
86.5201 63.1345 l
87.2647 60.1439 l
88.0093 57.9614 l
88.754 56.6257 l
89.1263 56.2834 l
89.4986 56.1605 l
89.8709 56.2575 l
90.2432 56.574 l
90.6155 57.1085 l
91.3601 58.8219 l
92.1048 61.3666 l
92.8494 64.6973 l
93.9663 71.0342 l
95.0832 78.7504 l
96.5725 90.644 l
101.785 134.551 l
102.902 141.917 l
104.019 147.829 l
104.763 150.842 l
105.508 153.049 l
106.253 154.41 l
106.625 154.765 l
106.997 154.901 l
107.369 154.817 l
107.742 154.513 l
108.114 153.992 l
108.859 152.303 l
109.603 149.783 l
110.348 146.474 l
111.465 140.167 l
112.582 132.475 l
114.071 120.604 l
119.283 76.6688 l
120.4 69.277 l
121.517 63.3343 l
122.262 60.298 l
123.007 58.0667 l
123.751 56.6803 l
124.123 56.3122 l
124.496 56.1634 l
124.868 56.2345 l
125.24 56.5254 l
125.613 57.0346 l
126.357 58.6978 l
127.102 61.1946 l
127.847 64.4804 l
128.963 70.758 l
130.08 78.4254 l
131.197 87.1764 l
131.57 120.863 l
137.154 74.2713 l
138.271 67.2939 l
139.388 61.8449 l
140.133 59.1717 l
140.877 57.3241 l
141.25 56.7205 l
141.622 56.3344 l
141.994 56.1675 l
142.367 56.2205 l
142.739 56.4931 l
143.111 56.9841 l
143.856 58.6121 l
144.601 61.0754 l
145.345 64.3299 l
146.462 70.5649 l
147.579 78.198 l
149.068 90.0158 l
154.653 136.641 l
155.77 143.646 l
156.887 149.127 l
157.631 151.824 l
158.376 153.697 l
158.748 154.313 l
159.121 154.712 l
159.493 154.892 l
159.865 154.852 l
160.238 154.592 l
160.61 154.113 l
161.354 152.511 l
162.099 150.072 l
162.844 146.84 l
163.961 140.634 l
165.078 133.026 l
166.567 121.231 l
172.151 74.5725 l
173.268 67.5404 l
174.385 62.0268 l
175.13 59.3067 l
175.875 57.4093 l
176.619 56.3685 l
176.991 56.1756 l
177.364 56.2026 l
177.736 56.4495 l
178.108 56.9151 l
178.853 58.493 l
179.598 60.9081 l
180.342 64.1174 l
181.459 70.2923 l
182.576 77.8759 l
184.065 89.6482 l
189.65 136.339 l
190.767 143.398 l
191.139 65.5892 l
191.884 62.0816 l
192.629 59.3472 l
193.373 57.4351 l
194.118 56.3792 l
194.49 56.1788 l
194.862 56.1982 l
195.235 56.4373 l
195.607 56.8952 l
196.352 58.458 l
197.096 60.8589 l
197.841 64.0549 l
198.958 70.2116 l
200.075 77.7806 l
201.564 89.5391 l
207.149 136.249 l
208.266 143.324 l
209.382 148.889 l
210.127 151.647 l
210.872 153.584 l
211.616 154.665 l
211.989 154.879 l
212.361 154.872 l
212.733 154.646 l
213.106 154.201 l
213.85 152.663 l
214.595 150.286 l
215.339 147.113 l
216.456 140.986 l
217.573 133.443 l
219.063 121.707 l
224.647 74.966 l
225.764 67.8636 l
226.881 62.2669 l
227.626 59.4857 l
228.37 57.5243 l
229.115 56.4172 l
229.487 56.1909 l
229.86 56.1843 l
230.232 56.3976 l
230.604 56.83 l
231.349 58.3426 l
232.093 60.6952 l
232.838 63.8457 l
233.955 69.9418 l
235.072 77.4607 l
236.561 89.1727 l
242.146 135.944 l
243.263 143.074 l
244.38 148.702 l
245.124 151.507 l
245.869 153.493 l
246.614 154.626 l
246.986 154.865 l
247.358 154.884 l
247.73 154.684 l
248.103 154.264 l
248.847 152.777 l
249.592 150.449 l
250.337 147.321 l
250.709 65.543 l
251.826 72.1026 l
252.943 79.999 l
254.432 92.0543 l
259.272 133.056 l
260.389 140.66 l
261.506 146.86 l
262.251 150.087 l
262.995 152.522 l
263.74 154.12 l
264.112 154.596 l
264.484 154.853 l
264.857 154.891 l
265.229 154.709 l
265.601 154.307 l
266.346 152.855 l
267.091 150.561 l
267.835 147.465 l
268.952 141.443 l
270.069 133.985 l
271.558 122.329 l
274.537 96.3575 l
276.398 80.97 l
277.888 70.5393 l
279.005 64.3098 l
279.749 61.0594 l
280.494 58.6008 l
281.238 56.9777 l
281.611 56.4889 l
281.983 56.2187 l
282.355 56.1681 l
282.728 56.3374 l
283.1 56.7259 l
283.472 57.3319 l
284.217 59.1845 l
284.961 61.862 l
285.706 65.3167 l
286.823 71.8184 l
287.94 79.6679 l
289.429 91.6816 l
294.642 135.422 l
295.758 142.642 l
296.875 148.378 l
297.62 151.262 l
298.365 153.332 l
299.109 154.551 l
299.482 154.834 l
299.854 154.898 l
300.226 154.741 l
300.598 154.366 l
300.971 153.773 l
301.715 151.945 l
302.46 149.291 l
303.205 145.858 l
304.322 139.386 l
305.439 131.56 l
306.928 119.567 l
309.906 93.5176 l
310.279 120.788 l
311.768 132.637 l
312.885 140.305 l
314.002 146.582 l
314.746 149.868 l
315.491 152.365 l
316.236 154.028 l
316.608 154.537 l
316.98 154.828 l
317.352 154.899 l
317.725 154.751 l
318.097 154.383 l
318.469 153.797 l
319.214 151.984 l
319.959 149.344 l
320.703 145.925 l
321.82 139.47 l
322.937 131.658 l
324.426 119.678 l
329.639 75.8879 l
330.756 68.6261 l
331.873 62.8394 l
332.617 59.9181 l
333.362 57.8091 l
334.106 56.5494 l
334.479 56.2457 l
334.851 56.1616 l
335.223 56.2973 l
335.596 56.6525 l
335.968 57.2254 l
336.713 59.0135 l
337.457 61.6295 l
338.202 65.027 l
339.319 71.4526 l
340.436 79.2407 l
341.925 91.1994 l
347.137 135.02 l
348.254 142.308 l
349.371 148.126 l
350.116 151.07 l
350.86 153.204 l
351.605 154.489 l
351.977 154.805 l
352.35 154.902 l
352.722 154.779 l
353.094 154.437 l
353.467 153.877 l
354.211 152.114 l
354.956 149.522 l
355.7 146.146 l
356.817 139.75 l
357.934 131.986 l
359.424 120.049 l
364.636 76.199 l
365.753 68.8848 l
366.87 63.0354 l
367.614 60.0681 l
368.359 57.91 l
369.104 56.5995 l
369.476 56.27 l
369.848 154.903 l
370.221 154.798 l
370.593 154.474 l
370.965 153.932 l
371.71 152.204 l
372.454 149.645 l
373.199 146.301 l
374.316 139.946 l
375.433 132.216 l
376.922 120.309 l
382.134 76.4186 l
383.251 69.068 l
384.368 63.1749 l
385.113 60.175 l
385.858 57.9825 l
386.602 56.6366 l
386.974 56.289 l
387.347 56.1608 l
387.719 56.2526 l
388.091 56.5638 l
388.464 57.0932 l
389.208 58.7964 l
389.953 61.3314 l
390.698 64.6531 l
391.815 70.9779 l
392.931 78.6842 l
394.421 90.5689 l
399.633 134.487 l
400.75 141.864 l
401.867 147.788 l
402.612 150.811 l
403.356 153.028 l
404.101 154.399 l
404.473 154.76 l
404.845 154.901 l
405.218 154.822 l
405.59 154.523 l
405.962 154.007 l
406.707 152.329 l
407.452 149.818 l
408.196 146.518 l
409.313 140.223 l
410.43 132.541 l
411.919 120.679 l
417.132 76.7328 l
418.249 69.3305 l
419.365 63.3753 l
420.11 60.3296 l
420.855 58.0885 l
421.599 56.6918 l
421.972 56.3185 l
422.344 56.1644 l
422.716 56.2302 l
423.089 56.5159 l
423.461 57.0199 l
424.206 58.6729 l
424.95 61.1599 l
425.695 64.4367 l
426.812 70.702 l
427.929 78.3595 l
429.046 87.1033 l
429.418 120.788 l
435.003 74.2106 l
436.119 67.2443 l
437.236 61.8084 l
437.981 59.1448 l
438.726 57.3072 l
439.098 56.7088 l
439.47 56.3279 l
439.843 56.1662 l
440.215 56.2244 l
440.587 56.5022 l
440.959 56.9985 l
441.704 58.6366 l
442.449 61.1095 l
443.193 64.3731 l
444.31 70.6203 l
445.427 78.2634 l
446.916 90.0903 l
452.501 136.702 l
453.618 143.696 l
454.735 149.164 l
455.48 151.851 l
456.224 153.714 l
456.596 154.325 l
456.969 154.719 l
457.341 154.893 l
457.713 154.848 l
458.086 154.583 l
458.458 154.099 l
459.203 152.486 l
459.947 150.038 l
460.692 146.797 l
461.809 140.579 l
462.926 132.961 l
464.415 121.157 l
470 74.5115 l
471.117 67.4903 l
472.234 61.9897 l
472.978 59.2792 l
473.723 57.3919 l
474.095 56.768 l
474.467 56.3613 l
474.84 56.1737 l
475.212 56.206 l
475.584 56.4581 l
475.957 56.9289 l
476.701 58.5169 l
477.446 60.9417 l
478.19 64.1601 l
479.307 70.3473 l
480.424 77.941 l
481.914 89.7224 l
487.498 136.4 l
488.615 143.449 l
488.987 65.6356 l
489.732 62.1191 l
490.477 59.3751 l
491.221 57.453 l
491.966 56.3867 l
492.338 56.181 l
492.711 56.1951 l
493.083 56.429 l
493.455 56.8817 l
494.2 58.4343 l
494.944 60.8254 l
495.689 64.0121 l
496.806 70.1566 l
497.923 77.7154 l
499.412 89.4645 l
504.997 136.187 l
506.114 143.274 l
507.231 148.851 l
507.975 151.618 l
508.72 153.565 l
509.465 154.657 l
509.837 154.876 l
510.209 154.875 l
510.581 154.654 l
510.954 154.214 l
511.698 152.686 l
512.443 150.32 l
513.188 147.155 l
514.305 141.041 l
515.422 133.508 l
516.911 121.782 l
518.4 108.904 l
518.4 108.904 l
stroke
grestore
/DejaVuSans findfont
14.400 scalefont
setfont
gsave
223.465625 406.760000 translate
0.000000 rotate
0.000000 0.000000 m /M glyphshow
12.416122 0.000000 m /o glyphshow
21.220535 0.000000 m /d glyphshow
30.355209 0.000000 m /u glyphshow
39.475830 0.000000 m /l glyphshow
43.473999 0.000000 m /a glyphshow
52.292465 0.000000 m /t glyphshow
57.934875 0.000000 m /s glyphshow
65.432327 0.000000 m /i glyphshow
69.430496 0.000000 m /o glyphshow
78.234909 0.000000 m /o glyphshow
87.039322 0.000000 m /n glyphshow
96.159943 0.000000 m /i glyphshow
100.158112 0.000000 m /t glyphshow
105.800522 0.000000 m /udieresis glyphshow
114.921143 0.000000 m /udieresis glyphshow
124.041763 0.000000 m /b glyphshow
133.176437 0.000000 m /i glyphshow
137.174606 0.000000 m /d glyphshow
grestore
0 setlinejoin
0 setlinecap
gsave
408.688 307.253 m
511.2 307.253 l
511.2 394.56 l
408.688 394.56 l
cl
gsave
1.000 setgray
fill
grestore
stroke
grestore
3.000 setlinewidth
1 setlinejoin
2 setlinecap
0.000 0.000 1.000 setrgbcolor
gsave
418.768 383.199 m
438.928 383.199 l
stroke
grestore
0.000 setgray
gsave
454.768125 378.159375 translate
0.000000 rotate
0.000000 0.000000 m /S glyphshow
9.134674 0.000000 m /i glyphshow
13.132843 0.000000 m /g glyphshow
22.267517 0.000000 m /n glyphshow
31.388138 0.000000 m /a glyphshow
40.206604 0.000000 m /a glyphshow
49.025070 0.000000 m /l glyphshow
grestore
1.000 setlinewidth
1.000 0.000 0.000 setrgbcolor
gsave
418.768 362.453 m
438.928 362.453 l
stroke
grestore
0.000 setgray
gsave
454.768125 357.412500 translate
0.000000 rotate
0.000000 0.000000 m /A glyphshow
9.844360 0.000000 m /M glyphshow
grestore
0.000 0.500 0.000 setrgbcolor
gsave
418.768 341.706 m
438.928 341.706 l
stroke
grestore
0.000 setgray
gsave
454.768125 336.665625 translate
0.000000 rotate
0.000000 0.000000 m /F glyphshow
8.277420 0.000000 m /M glyphshow
grestore
gsave
418.768 320.959 m
438.928 320.959 l
stroke
grestore
gsave
454.768125 315.918750 translate
0.000000 rotate
0.000000 0.000000 m /P glyphshow
8.677933 0.000000 m /M glyphshow
grestore

end
showpage
