%!PS-Adobe-3.0 EPSF-3.0
%%Title: polar.eps
%%Creator: matplotlib version 1.4.2, http://matplotlib.org/
%%CreationDate: Mon May 30 00:24:50 2016
%%Orientation: portrait
%%BoundingBox: 18 180 594 612
%%EndComments
%%BeginProlog
/mpldict 9 dict def
mpldict begin
/m { moveto } bind def
/l { lineto } bind def
/r { rlineto } bind def
/c { curveto } bind def
/cl { closepath } bind def
/box {
m
1 index 0 r
0 exch r
neg 0 r
cl
} bind def
/clipbox {
box
clip
newpath
} bind def
%!PS-Adobe-3.0 Resource-Font
%%Title: cmmi10
%%Copyright: Copyright (C) 1994, Basil K. Malyshev. All Rights Reserved.012BaKoMa Fonts Collection, Level-B.
%%Creator: Converted from TrueType to type 3 by PPR
25 dict begin
/_d{bind def}bind def
/_m{moveto}_d
/_l{lineto}_d
/_cl{closepath eofill}_d
/_c{curveto}_d
/_sc{7 -1 roll{setcachedevice}{pop pop pop pop pop pop}ifelse}_d
/_e{exec}_d
/FontName /Cmmi10 def
/PaintType 0 def
/FontMatrix[.001 0 0 .001 0 0]def
/FontBBox[-34 -250 1048 750]def
/FontType 3 def
/Encoding [ /theta ] def
/FontInfo 10 dict dup begin
/FamilyName (cmmi10) def
/FullName (cmmi10) def
/Notice (Copyright (C) 1994, Basil K. Malyshev. All Rights Reserved.012BaKoMa Fonts Collection, Level-B. ) def
/Weight (Regular) def
/Version (1.1/12-Nov-94) def
/ItalicAngle 0.0 def
/isFixedPitch false def
/UnderlinePosition -133 def
/UnderlineThickness 20 def
end readonly def
/CharStrings 1 dict dup begin
/theta{{469 0 40 -10 457 705 _sc
161 -10 _m
131 -10 106 0 88 22 _c
70 44 57 70 50 102 _c
43 133 40 164 40 195 _c
40 196 _l
40 229 43 263 49 299 _c
55 335 65 370 77 406 _c
89 442 102 474 116 502 _c
126 521 138 543 154 567 _c
169 591 186 614 205 635 _c
224 656 245 673 267 686 _c
289 698 311 705 334 705 _c
335 705 _l
359 705 379 698 395 685 _c
}_e{411 671 423 654 432 634 _c
441 613 447 591 451 567 _c
455 543 457 520 457 499 _c
457 448 450 396 436 344 _c
422 292 404 241 380 192 _c
370 173 358 151 342 126 _c
326 101 309 79 291 59 _c
273 39 252 22 230 9 _c
207 -3 184 -10 162 -10 _c
161 -10 _l
163 15 _m
185 15 206 26 226 50 _c
246 74 264 102 280 136 _c
295 170 308 204 320 240 _c
332 275 340 305 346 330 _c
}_e{142 330 _l
131 288 123 251 117 221 _c
111 191 109 161 109 132 _c
109 54 127 15 163 15 _c
150 365 _m
355 365 _l
362 394 368 418 372 438 _c
376 458 379 479 382 501 _c
385 523 387 543 387 562 _c
387 640 369 679 334 679 _c
292 679 255 645 224 577 _c
193 509 168 438 150 365 _c
_cl}_e}_d
end readonly def

/BuildGlyph
 {exch begin
 CharStrings exch
 2 copy known not{pop /.notdef}if
 true 3 1 roll get exec
 end}_d

/BuildChar {
 1 index /Encoding get exch get
 1 index /BuildGlyph get exec
}_d

FontName currentdict end definefont pop
%!PS-Adobe-3.0 Resource-Font
%%Title: DejaVu Sans
%%Copyright: Copyright (c) 2003 by Bitstream, Inc. All Rights Reserved. Copyright (c) 2006 by Tavmjong Bah. All Rights Reserved. DejaVu changes are in public domain 
%%Creator: Converted from TrueType to type 3 by PPR
25 dict begin
/_d{bind def}bind def
/_m{moveto}_d
/_l{lineto}_d
/_cl{closepath eofill}_d
/_c{curveto}_d
/_sc{7 -1 roll{setcachedevice}{pop pop pop pop pop pop}ifelse}_d
/_e{exec}_d
/FontName /DejaVuSans def
/PaintType 0 def
/FontMatrix[.001 0 0 .001 0 0]def
/FontBBox[-1021 -463 1793 1232]def
/FontType 3 def
/Encoding [ /A /I /Q ] def
/FontInfo 10 dict dup begin
/FamilyName (DejaVu Sans) def
/FullName (DejaVu Sans) def
/Notice (Copyright (c) 2003 by Bitstream, Inc. All Rights Reserved. Copyright (c) 2006 by Tavmjong Bah. All Rights Reserved. DejaVu changes are in public domain ) def
/Weight (Book) def
/Version (Version 2.35) def
/ItalicAngle 0.0 def
/isFixedPitch false def
/UnderlinePosition -130 def
/UnderlineThickness 90 def
end readonly def
/CharStrings 3 dict dup begin
/A{684 0 8 0 676 729 _sc
342 632 _m
208 269 _l
476 269 _l
342 632 _l
286 729 _m
398 729 _l
676 0 _l
573 0 _l
507 187 _l
178 187 _l
112 0 _l
8 0 _l
286 729 _l
_cl}_d
/I{295 0 98 0 197 729 _sc
98 729 _m
197 729 _l
197 0 _l
98 0 _l
98 729 _l
_cl}_d
/Q{{787 0 56 -128 731 742 _sc
394 662 _m
322 662 265 635 223 582 _c
181 528 160 456 160 364 _c
160 272 181 199 223 146 _c
265 92 322 66 394 66 _c
465 66 522 92 564 146 _c
606 199 627 272 627 364 _c
627 456 606 528 564 582 _c
522 635 465 662 394 662 _c
532 13 _m
662 -128 _l
543 -128 _l
435 -11 _l
424 -11 416 -12 410 -12 _c
404 -12 399 -13 394 -13 _c
291 -13 209 21 148 89 _c
}_e{86 157 56 248 56 364 _c
56 479 86 571 148 639 _c
209 707 291 742 394 742 _c
496 742 577 707 639 639 _c
700 571 731 479 731 364 _c
731 279 714 206 680 146 _c
646 86 596 41 532 13 _c
_cl}_e}_d
end readonly def

/BuildGlyph
 {exch begin
 CharStrings exch
 2 copy known not{pop /.notdef}if
 true 3 1 roll get exec
 end}_d

/BuildChar {
 1 index /Encoding get exch get
 1 index /BuildGlyph get exec
}_d

FontName currentdict end definefont pop
end
%%EndProlog
mpldict begin
18 180 translate
576 432 0 0 clipbox
gsave
0 0 m
576 0 l
576 432 l
0 432 l
cl
1.000 setgray
fill
grestore
gsave
295.2 43.2 m
341.027 43.2 384.983 61.4073 417.388 93.8119 c
449.793 126.217 468 170.173 468 216 c
468 261.827 449.793 305.783 417.388 338.188 c
384.983 370.593 341.027 388.8 295.2 388.8 c
249.373 388.8 205.417 370.593 173.012 338.188 c
140.607 305.783 122.4 261.827 122.4 216 c
122.4 170.173 140.607 126.217 173.012 93.8119 c
205.417 61.4073 249.373 43.2 295.2 43.2 c
cl
1.000 setgray
fill
grestore
3.000 setlinewidth
1 setlinejoin
2 setlinecap
[] 0 setdash
0.000 0.000 1.000 setrgbcolor
gsave
/c0 {
295.2 43.2 m
341.027 43.2 384.983 61.4073 417.388 93.8119 c
449.793 126.217 468 170.173 468 216 c
468 261.827 449.793 305.783 417.388 338.188 c
384.983 370.593 341.027 388.8 295.2 388.8 c
249.373 388.8 205.417 370.593 173.012 338.188 c
140.607 305.783 122.4 261.827 122.4 216 c
122.4 170.173 140.607 126.217 173.012 93.8119 c
205.417 61.4073 249.373 43.2 295.2 43.2 c
cl
clip
newpath
} bind def
c0
295.2 216 m
360.555 317.784 l
stroke
grestore
0.500 setlinewidth
0 setlinecap
0.000 setgray
gsave
/c1 {
295.2 43.2 m
341.027 43.2 384.983 61.4073 417.388 93.8119 c
449.793 126.217 468 170.173 468 216 c
468 261.827 449.793 305.783 417.388 338.188 c
384.983 370.593 341.027 388.8 295.2 388.8 c
249.373 388.8 205.417 370.593 173.012 338.188 c
140.607 305.783 122.4 261.827 122.4 216 c
122.4 170.173 140.607 126.217 173.012 93.8119 c
205.417 61.4073 249.373 43.2 295.2 43.2 c
cl
clip
newpath
} bind def
c1
/o {
gsave
newpath
translate
0.5 setlinewidth
1 setlinejoin
0 setlinecap
0 -3 m
0.795609 -3 1.55874 -2.6839 2.12132 -2.12132 c
2.6839 -1.55874 3 -0.795609 3 0 c
3 0.795609 2.6839 1.55874 2.12132 2.12132 c
1.55874 2.6839 0.795609 3 0 3 c
-0.795609 3 -1.55874 2.6839 -2.12132 2.12132 c
-2.6839 1.55874 -3 0.795609 -3 0 c
-3 -0.795609 -2.6839 -1.55874 -2.12132 -2.12132 c
-1.55874 -2.6839 -0.795609 -3 0 -3 c
cl
gsave
0.000 0.000 1.000 setrgbcolor
fill
grestore
stroke
grestore
} bind def
295.2 216 o
360.555 317.784 o
grestore
3.000 setlinewidth
2 setlinecap
0.000 0.500 0.000 setrgbcolor
gsave
/c2 {
295.2 43.2 m
341.027 43.2 384.983 61.4073 417.388 93.8119 c
449.793 126.217 468 170.173 468 216 c
468 261.827 449.793 305.783 417.388 338.188 c
384.983 370.593 341.027 388.8 295.2 388.8 c
249.373 388.8 205.417 370.593 173.012 338.188 c
140.607 305.783 122.4 261.827 122.4 216 c
122.4 170.173 140.607 126.217 173.012 93.8119 c
205.417 61.4073 249.373 43.2 295.2 43.2 c
cl
clip
newpath
} bind def
c2
329.76 216 m
329.753 216.705 l
329.731 217.41 l
329.695 218.115 l
329.645 218.818 l
329.58 219.52 l
329.501 220.221 l
329.408 220.92 l
329.3 221.617 l
329.179 222.312 l
329.043 223.004 l
328.893 223.693 l
328.729 224.379 l
328.551 225.062 l
328.359 225.74 l
328.153 226.415 l
327.934 227.085 l
327.701 227.751 l
327.454 228.412 l
327.194 229.068 l
326.921 229.718 l
326.634 230.362 l
326.335 231.001 l
326.022 231.633 l
325.697 232.259 l
325.359 232.878 l
325.008 233.489 l
324.645 234.094 l
324.269 234.691 l
323.882 235.281 l
323.483 235.862 l
323.071 236.435 l
322.649 236.999 l
322.214 237.555 l
321.769 238.102 l
321.312 238.639 l
320.845 239.168 l
320.367 239.686 l
319.878 240.195 l
319.379 240.693 l
318.87 241.182 l
318.351 241.659 l
317.823 242.127 l
317.285 242.583 l
316.738 243.028 l
316.182 243.462 l
315.617 243.884 l
315.044 244.295 l
314.462 244.694 l
313.873 245.081 l
stroke
grestore
1.000 setlinewidth
0 setlinejoin
0.000 setgray
gsave
295.2 43.2 m
341.027 43.2 384.983 61.4073 417.388 93.8119 c
449.793 126.217 468 170.173 468 216 c
468 261.827 449.793 305.783 417.388 338.188 c
384.983 370.593 341.027 388.8 295.2 388.8 c
249.373 388.8 205.417 370.593 173.012 338.188 c
140.607 305.783 122.4 261.827 122.4 216 c
122.4 170.173 140.607 126.217 173.012 93.8119 c
205.417 61.4073 249.373 43.2 295.2 43.2 c
cl
stroke
grestore
0.500 setlinewidth
1 setlinejoin
0 setlinecap
[1 3] 0 setdash
gsave
/c3 {
295.2 43.2 m
341.027 43.2 384.983 61.4073 417.388 93.8119 c
449.793 126.217 468 170.173 468 216 c
468 261.827 449.793 305.783 417.388 338.188 c
384.983 370.593 341.027 388.8 295.2 388.8 c
249.373 388.8 205.417 370.593 173.012 338.188 c
140.607 305.783 122.4 261.827 122.4 216 c
122.4 170.173 140.607 126.217 173.012 93.8119 c
205.417 61.4073 249.373 43.2 295.2 43.2 c
cl
clip
newpath
} bind def
c3
295.2 216 m
468 216 l
stroke
grestore
gsave
/c4 {
295.2 43.2 m
341.027 43.2 384.983 61.4073 417.388 93.8119 c
449.793 126.217 468 170.173 468 216 c
468 261.827 449.793 305.783 417.388 338.188 c
384.983 370.593 341.027 388.8 295.2 388.8 c
249.373 388.8 205.417 370.593 173.012 338.188 c
140.607 305.783 122.4 261.827 122.4 216 c
122.4 170.173 140.607 126.217 173.012 93.8119 c
205.417 61.4073 249.373 43.2 295.2 43.2 c
cl
clip
newpath
} bind def
c4
295.2 216 m
417.388 338.188 l
stroke
grestore
gsave
/c5 {
295.2 43.2 m
341.027 43.2 384.983 61.4073 417.388 93.8119 c
449.793 126.217 468 170.173 468 216 c
468 261.827 449.793 305.783 417.388 338.188 c
384.983 370.593 341.027 388.8 295.2 388.8 c
249.373 388.8 205.417 370.593 173.012 338.188 c
140.607 305.783 122.4 261.827 122.4 216 c
122.4 170.173 140.607 126.217 173.012 93.8119 c
205.417 61.4073 249.373 43.2 295.2 43.2 c
cl
clip
newpath
} bind def
c5
295.2 216 m
295.2 388.8 l
stroke
grestore
gsave
/c6 {
295.2 43.2 m
341.027 43.2 384.983 61.4073 417.388 93.8119 c
449.793 126.217 468 170.173 468 216 c
468 261.827 449.793 305.783 417.388 338.188 c
384.983 370.593 341.027 388.8 295.2 388.8 c
249.373 388.8 205.417 370.593 173.012 338.188 c
140.607 305.783 122.4 261.827 122.4 216 c
122.4 170.173 140.607 126.217 173.012 93.8119 c
205.417 61.4073 249.373 43.2 295.2 43.2 c
cl
clip
newpath
} bind def
c6
295.2 216 m
173.012 338.188 l
stroke
grestore
gsave
/c7 {
295.2 43.2 m
341.027 43.2 384.983 61.4073 417.388 93.8119 c
449.793 126.217 468 170.173 468 216 c
468 261.827 449.793 305.783 417.388 338.188 c
384.983 370.593 341.027 388.8 295.2 388.8 c
249.373 388.8 205.417 370.593 173.012 338.188 c
140.607 305.783 122.4 261.827 122.4 216 c
122.4 170.173 140.607 126.217 173.012 93.8119 c
205.417 61.4073 249.373 43.2 295.2 43.2 c
cl
clip
newpath
} bind def
c7
295.2 216 m
122.4 216 l
stroke
grestore
gsave
/c8 {
295.2 43.2 m
341.027 43.2 384.983 61.4073 417.388 93.8119 c
449.793 126.217 468 170.173 468 216 c
468 261.827 449.793 305.783 417.388 338.188 c
384.983 370.593 341.027 388.8 295.2 388.8 c
249.373 388.8 205.417 370.593 173.012 338.188 c
140.607 305.783 122.4 261.827 122.4 216 c
122.4 170.173 140.607 126.217 173.012 93.8119 c
205.417 61.4073 249.373 43.2 295.2 43.2 c
cl
clip
newpath
} bind def
c8
295.2 216 m
173.012 93.8119 l
stroke
grestore
gsave
/c9 {
295.2 43.2 m
341.027 43.2 384.983 61.4073 417.388 93.8119 c
449.793 126.217 468 170.173 468 216 c
468 261.827 449.793 305.783 417.388 338.188 c
384.983 370.593 341.027 388.8 295.2 388.8 c
249.373 388.8 205.417 370.593 173.012 338.188 c
140.607 305.783 122.4 261.827 122.4 216 c
122.4 170.173 140.607 126.217 173.012 93.8119 c
205.417 61.4073 249.373 43.2 295.2 43.2 c
cl
clip
newpath
} bind def
c9
295.2 216 m
295.2 43.2 l
stroke
grestore
gsave
/ca {
295.2 43.2 m
341.027 43.2 384.983 61.4073 417.388 93.8119 c
449.793 126.217 468 170.173 468 216 c
468 261.827 449.793 305.783 417.388 338.188 c
384.983 370.593 341.027 388.8 295.2 388.8 c
249.373 388.8 205.417 370.593 173.012 338.188 c
140.607 305.783 122.4 261.827 122.4 216 c
122.4 170.173 140.607 126.217 173.012 93.8119 c
205.417 61.4073 249.373 43.2 295.2 43.2 c
cl
clip
newpath
} bind def
ca
295.2 216 m
417.388 93.8119 l
stroke
grestore
gsave
/cb {
295.2 43.2 m
341.027 43.2 384.983 61.4073 417.388 93.8119 c
449.793 126.217 468 170.173 468 216 c
468 261.827 449.793 305.783 417.388 338.188 c
384.983 370.593 341.027 388.8 295.2 388.8 c
249.373 388.8 205.417 370.593 173.012 338.188 c
140.607 305.783 122.4 261.827 122.4 216 c
122.4 170.173 140.607 126.217 173.012 93.8119 c
205.417 61.4073 249.373 43.2 295.2 43.2 c
cl
clip
newpath
} bind def
cb
329.76 216 m
329.739 217.206 l
329.676 218.411 l
329.424 220.81 l
329.005 223.185 l
328.421 225.526 l
327.676 227.82 l
326.772 230.057 l
325.715 232.225 l
324.509 234.314 l
323.16 236.314 l
321.674 238.215 l
320.06 240.007 l
318.325 241.683 l
316.477 243.234 l
314.526 244.652 l
312.48 245.93 l
310.35 247.062 l
308.146 248.043 l
305.88 248.869 l
303.561 249.533 l
301.201 250.035 l
298.813 250.371 l
296.406 250.539 l
293.994 250.539 l
291.587 250.371 l
289.199 250.035 l
286.839 249.533 l
284.52 248.869 l
282.254 248.043 l
280.05 247.062 l
277.92 245.93 l
275.874 244.652 l
273.923 243.234 l
272.075 241.683 l
270.34 240.007 l
268.726 238.215 l
267.24 236.314 l
265.891 234.314 l
264.685 232.225 l
263.628 230.057 l
262.724 227.82 l
261.979 225.526 l
261.395 223.185 l
260.976 220.81 l
260.724 218.411 l
260.64 216 l
260.724 213.589 l
260.976 211.19 l
261.395 208.815 l
261.979 206.474 l
262.724 204.18 l
263.628 201.943 l
264.685 199.775 l
265.891 197.686 l
267.24 195.686 l
268.726 193.785 l
270.34 191.993 l
272.075 190.317 l
273.923 188.766 l
275.874 187.348 l
277.92 186.07 l
280.05 184.938 l
282.254 183.957 l
284.52 183.131 l
286.839 182.467 l
289.199 181.965 l
291.587 181.629 l
293.994 181.461 l
296.406 181.461 l
298.813 181.629 l
301.201 181.965 l
303.561 182.467 l
305.88 183.131 l
308.146 183.957 l
310.35 184.938 l
312.48 186.07 l
314.526 187.348 l
316.477 188.766 l
318.325 190.317 l
320.06 191.993 l
321.674 193.785 l
323.16 195.686 l
324.509 197.686 l
325.715 199.775 l
326.772 201.943 l
327.676 204.18 l
328.421 206.474 l
329.005 208.815 l
329.424 211.19 l
329.676 213.589 l
329.76 216 l
329.76 216 l
stroke
grestore
gsave
/cc {
295.2 43.2 m
341.027 43.2 384.983 61.4073 417.388 93.8119 c
449.793 126.217 468 170.173 468 216 c
468 261.827 449.793 305.783 417.388 338.188 c
384.983 370.593 341.027 388.8 295.2 388.8 c
249.373 388.8 205.417 370.593 173.012 338.188 c
140.607 305.783 122.4 261.827 122.4 216 c
122.4 170.173 140.607 126.217 173.012 93.8119 c
205.417 61.4073 249.373 43.2 295.2 43.2 c
cl
clip
newpath
} bind def
cc
364.32 216 m
364.278 218.412 l
364.152 220.822 l
363.647 225.62 l
362.81 230.371 l
361.642 235.052 l
360.152 239.64 l
358.344 244.114 l
356.229 248.45 l
353.817 252.628 l
351.119 256.628 l
348.149 260.429 l
344.921 264.015 l
341.45 267.366 l
337.755 270.467 l
333.851 273.303 l
329.76 275.86 l
325.5 278.125 l
321.093 280.087 l
316.559 281.737 l
311.922 283.067 l
307.203 284.07 l
302.425 284.741 l
297.612 285.078 l
292.788 285.078 l
287.975 284.741 l
283.197 284.07 l
278.478 283.067 l
273.841 281.737 l
269.307 280.087 l
264.9 278.125 l
260.64 275.86 l
256.549 273.303 l
252.645 270.467 l
248.95 267.366 l
245.479 264.015 l
242.251 260.429 l
239.281 256.628 l
236.583 252.628 l
234.171 248.45 l
232.056 244.114 l
230.248 239.64 l
228.758 235.052 l
227.59 230.371 l
226.753 225.62 l
226.248 220.822 l
226.08 216 l
226.248 211.178 l
226.753 206.38 l
227.59 201.629 l
228.758 196.948 l
230.248 192.36 l
232.056 187.886 l
234.171 183.55 l
236.583 179.372 l
239.281 175.372 l
242.251 171.571 l
245.479 167.985 l
248.95 164.634 l
252.645 161.533 l
256.549 158.697 l
260.64 156.14 l
264.9 153.875 l
269.307 151.913 l
273.841 150.263 l
278.478 148.933 l
283.197 147.93 l
287.975 147.259 l
292.788 146.922 l
297.612 146.922 l
302.425 147.259 l
307.203 147.93 l
311.922 148.933 l
316.559 150.263 l
321.093 151.913 l
325.5 153.875 l
329.76 156.14 l
333.851 158.697 l
337.755 161.533 l
341.45 164.634 l
344.921 167.985 l
348.149 171.571 l
351.119 175.372 l
353.817 179.372 l
356.229 183.55 l
358.344 187.886 l
360.152 192.36 l
361.642 196.948 l
362.81 201.629 l
363.647 206.38 l
364.152 211.178 l
364.32 216 l
364.32 216 l
stroke
grestore
gsave
/cd {
295.2 43.2 m
341.027 43.2 384.983 61.4073 417.388 93.8119 c
449.793 126.217 468 170.173 468 216 c
468 261.827 449.793 305.783 417.388 338.188 c
384.983 370.593 341.027 388.8 295.2 388.8 c
249.373 388.8 205.417 370.593 173.012 338.188 c
140.607 305.783 122.4 261.827 122.4 216 c
122.4 170.173 140.607 126.217 173.012 93.8119 c
205.417 61.4073 249.373 43.2 295.2 43.2 c
cl
clip
newpath
} bind def
cd
398.88 216 m
398.817 219.618 l
398.627 223.232 l
398.312 226.838 l
397.871 230.429 l
397.305 234.004 l
396.614 237.556 l
395.8 241.082 l
394.864 244.578 l
393.806 248.039 l
392.627 251.461 l
391.33 254.839 l
389.916 258.17 l
388.387 261.45 l
386.744 264.675 l
384.99 267.84 l
383.126 270.942 l
381.155 273.977 l
379.079 276.942 l
376.901 279.832 l
374.623 282.644 l
372.249 285.375 l
369.781 288.022 l
367.222 290.581 l
364.575 293.049 l
361.844 295.423 l
359.032 297.701 l
356.142 299.879 l
353.177 301.955 l
350.142 303.926 l
347.04 305.79 l
343.875 307.544 l
340.65 309.187 l
337.37 310.716 l
334.039 312.13 l
330.661 313.427 l
327.239 314.606 l
323.778 315.664 l
320.282 316.6 l
316.756 317.414 l
313.204 318.105 l
309.629 318.671 l
306.038 319.112 l
302.432 319.427 l
298.818 319.617 l
295.2 319.68 l
291.582 319.617 l
287.968 319.427 l
284.362 319.112 l
280.771 318.671 l
277.196 318.105 l
273.644 317.414 l
270.118 316.6 l
266.622 315.664 l
263.161 314.606 l
259.739 313.427 l
256.361 312.13 l
253.03 310.716 l
249.75 309.187 l
246.525 307.544 l
243.36 305.79 l
240.258 303.926 l
237.223 301.955 l
234.258 299.879 l
231.368 297.701 l
228.556 295.423 l
225.825 293.049 l
223.178 290.581 l
220.619 288.022 l
218.151 285.375 l
215.777 282.644 l
213.499 279.832 l
211.321 276.942 l
209.245 273.977 l
207.274 270.942 l
205.41 267.84 l
203.656 264.675 l
202.013 261.45 l
200.484 258.17 l
199.07 254.839 l
197.773 251.461 l
196.594 248.039 l
195.536 244.578 l
194.6 241.082 l
193.786 237.556 l
193.095 234.004 l
192.529 230.429 l
192.088 226.838 l
191.773 223.232 l
191.583 219.618 l
191.52 216 l
191.583 212.382 l
191.773 208.768 l
192.088 205.162 l
192.529 201.571 l
193.095 197.996 l
193.786 194.444 l
194.6 190.918 l
195.536 187.422 l
196.594 183.961 l
197.773 180.539 l
199.07 177.161 l
200.484 173.83 l
202.013 170.55 l
203.656 167.325 l
205.41 164.16 l
207.274 161.058 l
209.245 158.023 l
211.321 155.058 l
213.499 152.168 l
215.777 149.356 l
218.151 146.625 l
220.619 143.978 l
223.178 141.419 l
225.825 138.951 l
228.556 136.577 l
231.368 134.299 l
234.258 132.121 l
237.223 130.045 l
240.258 128.074 l
243.36 126.21 l
246.525 124.456 l
249.75 122.813 l
253.03 121.284 l
256.361 119.87 l
259.739 118.573 l
263.161 117.394 l
266.622 116.336 l
270.118 115.4 l
273.644 114.586 l
277.196 113.895 l
280.771 113.329 l
284.362 112.888 l
287.968 112.573 l
291.582 112.383 l
295.2 112.32 l
298.818 112.383 l
302.432 112.573 l
306.038 112.888 l
309.629 113.329 l
313.204 113.895 l
316.756 114.586 l
320.282 115.4 l
323.778 116.336 l
327.239 117.394 l
330.661 118.573 l
334.039 119.87 l
337.37 121.284 l
340.65 122.813 l
343.875 124.456 l
347.04 126.21 l
350.142 128.074 l
353.177 130.045 l
356.142 132.121 l
359.032 134.299 l
361.844 136.577 l
364.575 138.951 l
367.222 141.419 l
369.781 143.978 l
372.249 146.625 l
374.623 149.356 l
376.901 152.168 l
379.079 155.058 l
381.155 158.023 l
383.126 161.058 l
384.99 164.16 l
386.744 167.325 l
388.387 170.55 l
389.916 173.83 l
391.33 177.161 l
392.627 180.539 l
393.806 183.961 l
394.864 187.422 l
395.8 190.918 l
396.614 194.444 l
397.305 197.996 l
397.871 201.571 l
398.312 205.162 l
398.627 208.768 l
398.817 212.382 l
398.88 216 l
398.88 216 l
stroke
grestore
gsave
/ce {
295.2 43.2 m
341.027 43.2 384.983 61.4073 417.388 93.8119 c
449.793 126.217 468 170.173 468 216 c
468 261.827 449.793 305.783 417.388 338.188 c
384.983 370.593 341.027 388.8 295.2 388.8 c
249.373 388.8 205.417 370.593 173.012 338.188 c
140.607 305.783 122.4 261.827 122.4 216 c
122.4 170.173 140.607 126.217 173.012 93.8119 c
205.417 61.4073 249.373 43.2 295.2 43.2 c
cl
clip
newpath
} bind def
ce
433.44 216 m
433.356 220.825 l
433.103 225.643 l
432.683 230.45 l
432.095 235.239 l
431.34 240.005 l
430.419 244.742 l
429.334 249.443 l
428.085 254.104 l
426.674 258.719 l
425.103 263.281 l
423.374 267.786 l
421.489 272.227 l
419.449 276.6 l
417.259 280.9 l
414.919 285.12 l
412.434 289.256 l
409.806 293.303 l
407.039 297.255 l
404.135 301.109 l
401.098 304.859 l
397.932 308.501 l
394.642 312.03 l
391.23 315.442 l
387.701 318.732 l
384.059 321.898 l
380.309 324.935 l
376.455 327.839 l
372.503 330.606 l
368.456 333.234 l
364.32 335.719 l
360.1 338.059 l
355.8 340.249 l
351.427 342.289 l
346.986 344.174 l
342.481 345.903 l
337.919 347.474 l
333.304 348.885 l
328.643 350.134 l
323.942 351.219 l
319.205 352.14 l
314.439 352.895 l
309.65 353.483 l
304.843 353.903 l
300.025 354.156 l
295.2 354.24 l
290.375 354.156 l
285.557 353.903 l
280.75 353.483 l
275.961 352.895 l
271.195 352.14 l
266.458 351.219 l
261.757 350.134 l
257.096 348.885 l
252.481 347.474 l
247.919 345.903 l
243.414 344.174 l
238.973 342.289 l
234.6 340.249 l
230.3 338.059 l
226.08 335.719 l
221.944 333.234 l
217.897 330.606 l
213.945 327.839 l
210.091 324.935 l
206.341 321.898 l
202.699 318.732 l
199.17 315.442 l
195.758 312.03 l
192.468 308.501 l
189.302 304.859 l
186.265 301.109 l
183.361 297.255 l
180.594 293.303 l
177.966 289.256 l
175.481 285.12 l
173.141 280.9 l
170.951 276.6 l
168.911 272.227 l
167.026 267.786 l
165.297 263.281 l
163.726 258.719 l
162.315 254.104 l
161.066 249.443 l
159.981 244.742 l
159.06 240.005 l
158.305 235.239 l
157.717 230.45 l
157.297 225.643 l
157.044 220.825 l
156.96 216 l
157.044 211.175 l
157.297 206.357 l
157.717 201.55 l
158.305 196.761 l
159.06 191.995 l
159.981 187.258 l
161.066 182.557 l
162.315 177.896 l
163.726 173.281 l
165.297 168.719 l
167.026 164.214 l
168.911 159.773 l
170.951 155.4 l
173.141 151.1 l
175.481 146.88 l
177.966 142.744 l
180.594 138.697 l
183.361 134.745 l
186.265 130.891 l
189.302 127.141 l
192.468 123.499 l
195.758 119.97 l
199.17 116.558 l
202.699 113.268 l
206.341 110.102 l
210.091 107.065 l
213.945 104.161 l
217.897 101.394 l
221.944 98.7658 l
226.08 96.2806 l
230.3 93.9413 l
234.6 91.7507 l
238.973 89.7115 l
243.414 87.8261 l
247.919 86.0969 l
252.481 84.5259 l
257.096 83.1152 l
261.757 81.8663 l
266.458 80.7809 l
271.195 79.8602 l
275.961 79.1053 l
280.75 78.5173 l
285.557 78.0967 l
290.375 77.8442 l
295.2 77.76 l
300.025 77.8442 l
304.843 78.0967 l
309.65 78.5173 l
314.439 79.1053 l
319.205 79.8602 l
323.942 80.7809 l
328.643 81.8663 l
333.304 83.1152 l
337.919 84.5259 l
342.481 86.0969 l
346.986 87.8261 l
351.427 89.7115 l
355.8 91.7507 l
360.1 93.9413 l
364.32 96.2806 l
368.456 98.7658 l
372.503 101.394 l
376.455 104.161 l
380.309 107.065 l
384.059 110.102 l
387.701 113.268 l
391.23 116.558 l
394.642 119.97 l
397.932 123.499 l
401.098 127.141 l
404.135 130.891 l
407.039 134.745 l
409.806 138.697 l
412.434 142.744 l
414.919 146.88 l
417.259 151.1 l
419.449 155.4 l
421.489 159.773 l
423.374 164.214 l
425.103 168.719 l
426.674 173.281 l
428.085 177.896 l
429.334 182.557 l
430.419 187.258 l
431.34 191.995 l
432.095 196.761 l
432.683 201.55 l
433.103 206.357 l
433.356 211.175 l
433.44 216 l
433.44 216 l
stroke
grestore
gsave
/cf {
295.2 43.2 m
341.027 43.2 384.983 61.4073 417.388 93.8119 c
449.793 126.217 468 170.173 468 216 c
468 261.827 449.793 305.783 417.388 338.188 c
384.983 370.593 341.027 388.8 295.2 388.8 c
249.373 388.8 205.417 370.593 173.012 338.188 c
140.607 305.783 122.4 261.827 122.4 216 c
122.4 170.173 140.607 126.217 173.012 93.8119 c
205.417 61.4073 249.373 43.2 295.2 43.2 c
cl
clip
newpath
} bind def
cf
468 216 m
467.895 222.031 l
467.579 228.054 l
467.053 234.063 l
466.318 240.049 l
465.375 246.006 l
464.224 251.927 l
462.867 257.804 l
461.306 263.63 l
459.543 269.398 l
457.579 275.101 l
455.417 280.732 l
453.061 286.284 l
450.512 291.751 l
447.773 297.125 l
444.849 302.4 l
441.743 307.57 l
438.458 312.629 l
434.998 317.569 l
431.368 322.386 l
427.572 327.074 l
423.615 331.626 l
419.502 336.037 l
415.237 340.302 l
410.826 344.415 l
406.274 348.372 l
401.586 352.168 l
396.769 355.798 l
391.829 359.258 l
386.77 362.543 l
381.6 365.649 l
376.325 368.573 l
370.951 371.312 l
365.484 373.861 l
359.932 376.217 l
354.301 378.379 l
348.598 380.343 l
342.83 382.106 l
337.004 383.667 l
331.127 385.024 l
325.206 386.175 l
319.249 387.118 l
313.263 387.853 l
307.254 388.379 l
301.231 388.695 l
295.2 388.8 l
289.169 388.695 l
283.146 388.379 l
277.137 387.853 l
271.151 387.118 l
265.194 386.175 l
259.273 385.024 l
253.396 383.667 l
247.57 382.106 l
241.802 380.343 l
236.099 378.379 l
230.468 376.217 l
224.916 373.861 l
219.449 371.312 l
214.075 368.573 l
208.8 365.649 l
203.63 362.543 l
198.571 359.258 l
193.631 355.798 l
188.814 352.168 l
184.126 348.372 l
179.574 344.415 l
175.163 340.302 l
170.898 336.037 l
166.785 331.626 l
162.828 327.074 l
159.032 322.386 l
155.402 317.569 l
151.942 312.629 l
148.657 307.57 l
145.551 302.4 l
142.627 297.125 l
139.888 291.751 l
137.339 286.284 l
134.983 280.732 l
132.821 275.101 l
130.857 269.398 l
129.094 263.63 l
127.533 257.804 l
126.176 251.927 l
125.025 246.006 l
124.082 240.049 l
123.347 234.063 l
122.821 228.054 l
122.505 222.031 l
122.4 216 l
122.505 209.969 l
122.821 203.946 l
123.347 197.937 l
124.082 191.951 l
125.025 185.994 l
126.176 180.073 l
127.533 174.196 l
129.094 168.37 l
130.857 162.602 l
132.821 156.899 l
134.983 151.268 l
137.339 145.716 l
139.888 140.249 l
142.627 134.875 l
145.551 129.6 l
148.657 124.43 l
151.942 119.371 l
155.402 114.431 l
159.032 109.614 l
162.828 104.926 l
166.785 100.374 l
170.898 95.963 l
175.163 91.6981 l
179.574 87.5846 l
184.126 83.6275 l
188.814 79.8317 l
193.631 76.2019 l
198.571 72.7423 l
203.63 69.4573 l
208.8 66.3508 l
214.075 63.4267 l
219.449 60.6884 l
224.916 58.1393 l
230.468 55.7826 l
236.099 53.6211 l
241.802 51.6574 l
247.57 49.894 l
253.396 48.3329 l
259.273 46.9761 l
265.194 45.8252 l
271.151 44.8817 l
277.137 44.1466 l
283.146 43.6209 l
289.169 43.3053 l
295.2 43.2 l
301.231 43.3053 l
307.254 43.6209 l
313.263 44.1466 l
319.249 44.8817 l
325.206 45.8252 l
331.127 46.9761 l
337.004 48.3329 l
342.83 49.894 l
348.598 51.6574 l
354.301 53.6211 l
359.932 55.7826 l
365.484 58.1393 l
370.951 60.6884 l
376.325 63.4267 l
381.6 66.3508 l
386.77 69.4573 l
391.829 72.7423 l
396.769 76.2019 l
401.586 79.8317 l
406.274 83.6275 l
410.826 87.5846 l
415.237 91.6981 l
419.502 95.963 l
423.615 100.374 l
427.572 104.926 l
431.368 109.614 l
434.998 114.431 l
438.458 119.371 l
441.743 124.43 l
444.849 129.6 l
447.773 134.875 l
450.512 140.249 l
453.061 145.716 l
455.417 151.268 l
457.579 156.899 l
459.543 162.602 l
461.306 168.37 l
462.867 174.196 l
464.224 180.073 l
465.375 185.994 l
466.318 191.951 l
467.053 197.937 l
467.579 203.946 l
467.895 209.969 l
468 216 l
468 216 l
stroke
grestore
0.000 0.502 0.000 setrgbcolor
gsave
306.755750 219.574612 translate
0.000000 rotate
/Cmmi10 findfont
25.0 scalefont
setfont
0.000000 0.375000 moveto
/theta glyphshow


grestore
0.000 0.000 1.000 setrgbcolor
/DejaVuSans findfont
22.000 scalefont
setfont
gsave
313.689519 282.601142 translate
0.000000 rotate
0.000000 0.000000 m /A glyphshow
grestore
0.000 setgray
/DejaVuSans findfont
30.000 scalefont
setfont
gsave
483.803438 207.718750 translate
0.000000 rotate
0.000000 0.000000 m /I glyphshow
grestore
gsave
285.075000 397.798750 translate
0.000000 rotate
0.000000 0.000000 m /Q glyphshow
grestore

end
showpage
