%!PS-Adobe-3.0 EPSF-3.0
%%Title: yle-mods-filt.eps
%%Creator: matplotlib version 1.4.2, http://matplotlib.org/
%%CreationDate: Sun May 29 17:12:04 2016
%%Orientation: portrait
%%BoundingBox: 18 180 594 612
%%EndComments
%%BeginProlog
/mpldict 9 dict def
mpldict begin
/m { moveto } bind def
/l { lineto } bind def
/r { rlineto } bind def
/c { curveto } bind def
/cl { closepath } bind def
/box {
m
1 index 0 r
0 exch r
neg 0 r
cl
} bind def
/clipbox {
box
clip
newpath
} bind def
%!PS-Adobe-3.0 Resource-Font
%%Title: cmmi10
%%Copyright: Copyright (C) 1994, Basil K. Malyshev. All Rights Reserved.012BaKoMa Fonts Collection, Level-B.
%%Creator: Converted from TrueType to type 3 by PPR
25 dict begin
/_d{bind def}bind def
/_m{moveto}_d
/_l{lineto}_d
/_cl{closepath eofill}_d
/_c{curveto}_d
/_sc{7 -1 roll{setcachedevice}{pop pop pop pop pop pop}ifelse}_d
/_e{exec}_d
/FontName /Cmmi10 def
/PaintType 0 def
/FontMatrix[.001 0 0 .001 0 0]def
/FontBBox[-34 -250 1048 750]def
/FontType 3 def
/Encoding [ /e /g /t /i /m /d /A /u /l /p ] def
/FontInfo 10 dict dup begin
/FamilyName (cmmi10) def
/FullName (cmmi10) def
/Notice (Copyright (C) 1994, Basil K. Malyshev. All Rights Reserved.012BaKoMa Fonts Collection, Level-B. ) def
/Weight (Regular) def
/Version (1.1/12-Nov-94) def
/ItalicAngle 0.0 def
/isFixedPitch false def
/UnderlinePosition -133 def
/UnderlineThickness 20 def
end readonly def
/CharStrings 10 dict dup begin
/e{{465 0 44 -10 430 442 _sc
201 -10 _m
169 -10 141 -2 117 14 _c
93 30 75 53 63 81 _c
50 109 44 138 44 170 _c
44 217 56 262 80 304 _c
104 346 136 379 177 404 _c
218 429 262 442 309 442 _c
337 442 362 434 384 419 _c
405 404 416 383 416 356 _c
416 317 400 288 370 270 _c
339 251 304 239 266 235 _c
228 231 185 229 139 229 _c
136 229 _l
125 189 120 155 120 127 _c
}_e{120 97 126 71 140 49 _c
154 26 175 15 203 15 _c
243 15 281 24 318 42 _c
354 60 384 86 407 118 _c
409 120 411 121 415 121 _c
418 121 421 119 425 115 _c
428 111 430 108 430 105 _c
430 102 429 100 428 99 _c
404 65 371 38 330 19 _c
288 0 245 -10 201 -10 _c
142 255 _m
180 255 216 256 249 260 _c
282 264 312 273 339 287 _c
365 301 379 324 379 355 _c
}_e{379 367 375 378 368 387 _c
361 396 352 403 342 408 _c
331 413 320 416 308 416 _c
280 416 254 408 232 393 _c
209 377 190 357 176 333 _c
161 308 150 282 142 255 _c
_cl}_e}_d
/g{{477 0 14 -204 476 442 _sc
14 -142 _m
14 -126 19 -111 31 -99 _c
42 -87 56 -81 72 -81 _c
82 -81 91 -84 99 -91 _c
106 -97 110 -106 110 -117 _c
110 -129 106 -139 99 -149 _c
92 -159 83 -166 73 -170 _c
91 -175 119 -178 157 -178 _c
187 -178 215 -166 241 -142 _c
266 -118 283 -91 291 -61 _c
320 55 _l
284 18 246 0 207 0 _c
178 0 153 7 133 22 _c
113 36 97 56 87 80 _c
}_e{76 104 71 130 71 158 _c
71 188 77 220 89 254 _c
101 288 119 319 142 348 _c
164 376 190 399 220 416 _c
249 433 280 442 313 442 _c
332 442 349 436 365 426 _c
381 415 393 401 403 383 _c
409 409 424 422 446 422 _c
454 422 461 419 467 414 _c
473 409 476 402 476 394 _c
476 392 476 390 476 389 _c
476 388 475 387 475 386 _c
361 -67 _l
355 -87 346 -106 332 -124 _c
}_e{318 -141 301 -155 282 -167 _c
263 -179 242 -188 220 -194 _c
198 -200 176 -204 156 -204 _c
118 -204 84 -200 56 -193 _c
28 -185 14 -168 14 -142 _c
209 26 _m
251 26 293 55 335 114 _c
390 332 _l
385 355 376 375 362 391 _c
348 407 331 416 311 416 _c
289 416 268 407 248 389 _c
228 371 212 349 199 324 _c
187 300 175 265 163 220 _c
151 175 146 140 146 114 _c
146 91 151 71 161 53 _c
}_e{171 35 187 26 209 26 _c
_cl}_e}_d
/t{{361 0 22 -10 330 626 _sc
62 81 _m
62 91 63 100 65 109 _c
137 396 _l
32 396 _l
25 396 22 400 22 409 _c
24 423 29 431 35 431 _c
146 431 _l
186 594 _l
188 602 193 610 201 616 _c
209 622 218 626 228 626 _c
236 626 243 623 249 618 _c
255 613 258 606 258 598 _c
258 596 257 594 257 593 _c
257 592 257 591 257 590 _c
217 431 _l
320 431 _l
326 431 330 426 330 418 _c
}_e{330 416 329 414 328 410 _c
327 406 326 402 324 400 _c
322 397 320 396 317 396 _c
208 396 _l
136 107 _l
131 88 129 72 129 58 _c
129 29 138 15 158 15 _c
187 15 213 28 236 56 _c
258 84 276 114 288 147 _c
290 151 293 153 296 153 _c
308 153 _l
310 153 312 152 314 150 _c
316 148 317 146 317 144 _c
317 142 316 141 316 141 _c
301 101 280 65 252 35 _c
}_e{224 5 192 -10 156 -10 _c
129 -10 107 -1 89 15 _c
71 32 62 54 62 81 _c
_cl}_e}_d
/i{{344 0 27 -10 296 661 _sc
78 72 _m
78 84 80 97 86 111 _c
167 326 _l
175 350 180 370 180 386 _c
180 406 172 416 158 416 _c
132 416 110 402 93 375 _c
75 347 63 317 55 284 _c
53 280 51 278 47 278 _c
35 278 _l
29 278 27 281 27 287 _c
27 290 _l
37 330 54 365 76 396 _c
98 426 126 442 160 442 _c
184 442 204 434 220 418 _c
236 402 245 383 245 359 _c
}_e{245 346 242 333 237 320 _c
156 105 _l
146 83 142 63 142 45 _c
142 25 149 15 165 15 _c
191 15 212 29 230 57 _c
247 85 259 115 267 147 _c
268 151 271 153 275 153 _c
287 153 _l
289 153 291 152 293 150 _c
295 148 296 146 296 144 _c
296 143 295 142 295 141 _c
285 103 269 68 247 37 _c
224 5 196 -10 163 -10 _c
139 -10 119 -2 103 13 _c
86 29 78 48 78 72 _c
}_e{191 606 _m
191 620 196 632 208 644 _c
220 655 233 661 247 661 _c
258 661 267 657 275 650 _c
282 643 286 634 286 624 _c
286 609 280 596 268 585 _c
256 573 243 568 229 568 _c
218 568 209 571 202 579 _c
194 586 191 595 191 606 _c
_cl}_e}_d
/m{{878 0 27 -10 851 442 _sc
77 17 _m
77 21 77 24 78 26 _c
153 324 _l
157 342 160 359 160 373 _c
160 401 150 416 131 416 _c
110 416 94 403 84 378 _c
74 353 64 322 55 284 _c
55 282 54 280 52 279 _c
50 278 48 278 47 278 _c
35 278 _l
33 278 31 279 29 281 _c
27 283 27 286 27 288 _c
34 317 41 342 48 362 _c
54 382 65 400 79 417 _c
}_e{93 433 110 442 132 442 _c
156 442 178 434 198 418 _c
217 402 227 382 227 358 _c
247 384 270 404 297 419 _c
323 434 352 442 382 442 _c
413 442 440 434 463 418 _c
486 402 498 379 498 349 _c
518 378 542 401 570 417 _c
597 433 627 442 660 442 _c
694 442 722 432 743 414 _c
764 395 775 368 775 334 _c
775 306 768 273 756 235 _c
744 196 729 153 711 105 _c
}_e{701 81 697 61 697 45 _c
697 25 704 15 720 15 _c
746 15 767 29 785 57 _c
802 85 814 115 822 147 _c
824 151 826 153 830 153 _c
842 153 _l
844 153 846 152 848 150 _c
850 148 851 146 851 144 _c
851 143 850 142 850 141 _c
840 103 824 68 802 37 _c
780 5 752 -10 718 -10 _c
694 -10 674 -2 658 13 _c
641 29 633 48 633 72 _c
633 83 635 96 641 111 _c
}_e{659 161 675 205 688 245 _c
700 284 707 319 707 349 _c
707 367 703 383 696 396 _c
688 409 676 416 658 416 _c
622 416 590 404 563 382 _c
536 360 513 330 494 294 _c
492 287 491 282 491 279 _c
427 22 _l
424 12 419 5 411 -1 _c
403 -7 394 -10 385 -10 _c
377 -10 370 -7 364 -3 _c
358 1 355 8 355 17 _c
355 21 355 24 356 26 _c
420 281 _l
426 308 430 331 430 349 _c
}_e{430 367 426 383 418 396 _c
410 409 398 416 380 416 _c
355 416 332 410 312 400 _c
292 389 274 375 259 357 _c
243 339 229 318 217 294 _c
149 22 _l
147 12 142 5 134 -1 _c
126 -7 117 -10 107 -10 _c
99 -10 92 -7 86 -3 _c
80 1 77 8 77 17 _c
_cl}_e}_d
/d{{520 0 38 -10 519 694 _sc
174 -10 _m
132 -10 98 5 74 37 _c
50 68 38 105 38 149 _c
38 191 49 236 71 282 _c
93 328 122 366 160 396 _c
198 426 238 442 282 442 _c
302 442 319 436 335 425 _c
351 414 363 400 372 382 _c
428 605 _l
430 616 432 625 433 632 _c
433 642 411 648 368 648 _c
361 648 358 652 358 661 _c
358 663 358 666 360 670 _c
361 674 362 677 364 679 _c
}_e{366 681 368 683 372 683 _c
507 694 _l
515 694 519 689 519 681 _c
375 106 _l
370 94 368 78 368 58 _c
368 29 377 15 397 15 _c
417 15 433 28 444 55 _c
455 81 464 112 472 147 _c
473 151 476 153 480 153 _c
492 153 _l
494 153 496 151 498 149 _c
500 147 501 145 501 143 _c
489 96 476 59 462 31 _c
448 3 426 -10 395 -10 _c
372 -10 352 -3 335 9 _c
}_e{318 21 307 39 303 61 _c
260 13 217 -10 174 -10 _c
175 15 _m
199 15 222 24 245 42 _c
267 60 287 81 303 106 _c
303 106 304 108 304 110 _c
359 330 _l
355 353 346 373 333 390 _c
319 407 302 416 280 416 _c
257 416 236 406 217 388 _c
197 370 181 348 168 323 _c
154 296 142 259 130 213 _c
118 167 113 131 113 105 _c
113 81 118 60 128 42 _c
138 24 153 15 175 15 _c
}_e{_cl}_e}_d
/A{{750 0 35 0 723 716 _sc
45 0 _m
38 0 35 4 35 13 _c
37 27 42 35 48 35 _c
74 35 97 40 117 51 _c
137 61 154 78 169 101 _c
170 102 171 103 171 103 _c
528 705 _l
533 712 539 716 547 716 _c
560 716 _l
562 716 564 715 566 714 _c
568 713 569 712 571 710 _c
572 708 573 707 573 705 _c
634 59 _l
634 56 635 52 638 46 _c
644 38 669 35 713 35 _c
}_e{719 35 723 30 723 22 _c
721 13 719 7 717 4 _c
715 1 712 0 706 0 _c
456 0 _l
450 0 447 4 447 13 _c
450 27 454 35 460 35 _c
512 35 540 44 544 62 _c
529 227 _l
282 227 _l
202 93 _l
197 85 195 77 195 68 _c
195 56 200 47 212 42 _c
223 37 235 35 249 35 _c
255 35 259 30 259 22 _c
256 12 254 6 253 4 _c
251 1 248 0 242 0 _c
}_e{45 0 _l
302 262 _m
525 262 _l
495 586 _l
302 262 _l
_cl}_e}_d
/u{{572 0 27 -10 546 442 _sc
106 109 _m
106 131 109 153 115 176 _c
121 198 129 224 139 252 _c
149 280 159 305 167 326 _c
175 350 180 370 180 386 _c
180 406 172 416 158 416 _c
132 416 110 402 93 375 _c
75 347 63 317 55 284 _c
53 280 51 278 47 278 _c
35 278 _l
29 278 27 281 27 287 _c
27 290 _l
37 330 54 365 76 396 _c
98 426 126 442 160 442 _c
}_e{184 442 204 434 220 418 _c
236 402 245 383 245 359 _c
245 346 242 333 237 320 _c
233 312 226 294 216 267 _c
206 239 198 217 193 199 _c
187 181 183 163 179 146 _c
175 128 174 111 174 94 _c
174 72 178 53 188 38 _c
197 22 212 15 234 15 _c
276 15 314 41 346 94 _c
346 96 347 99 348 101 _c
348 103 349 106 349 109 _c
421 399 _l
423 407 428 415 436 421 _c
}_e{444 427 453 431 463 431 _c
471 431 478 428 484 423 _c
490 418 493 411 493 403 _c
493 399 492 396 492 395 _c
420 107 _l
415 87 413 70 413 58 _c
413 29 422 15 442 15 _c
463 15 479 28 490 55 _c
500 81 509 112 517 147 _c
518 151 521 153 525 153 _c
537 153 _l
539 153 541 151 543 149 _c
545 147 546 145 546 143 _c
538 114 531 89 525 69 _c
518 49 507 30 493 14 _c
}_e{479 -2 461 -10 440 -10 _c
418 -10 399 -4 383 6 _c
366 17 355 33 349 53 _c
333 33 316 18 296 7 _c
276 -4 254 -10 232 -10 _c
193 -10 162 0 140 21 _c
117 41 106 71 106 109 _c
_cl}_e}_d
/l{{298 0 44 -10 262 694 _sc
44 81 _m
44 83 44 86 44 90 _c
44 94 45 97 46 101 _c
46 105 47 108 47 110 _c
171 605 _l
173 616 175 625 176 632 _c
176 642 154 648 111 648 _c
104 648 101 652 101 661 _c
101 663 102 666 103 670 _c
104 674 105 677 107 679 _c
109 681 111 683 115 683 _c
250 694 _l
258 694 262 689 262 681 _c
118 106 _l
113 95 111 79 111 58 _c
}_e{111 29 120 15 140 15 _c
160 15 176 27 186 53 _c
196 79 206 110 214 147 _c
215 151 218 153 222 153 _c
234 153 _l
236 153 238 151 240 149 _c
242 147 243 145 243 143 _c
235 111 227 85 221 67 _c
215 48 205 30 191 14 _c
177 -2 159 -10 138 -10 _c
111 -10 89 -1 71 15 _c
53 32 44 54 44 81 _c
_cl}_e}_d
/p{{503 0 -33 -193 491 442 _sc
-24 -193 _m
-30 -193 -33 -188 -33 -180 _c
-31 -165 -26 -158 -20 -158 _c
0 -158 14 -156 22 -152 _c
30 -148 37 -139 42 -124 _c
155 325 _l
159 337 162 353 162 373 _c
162 401 152 416 133 416 _c
112 416 96 403 86 378 _c
76 353 66 322 57 284 _c
57 280 54 278 49 278 _c
37 278 _l
35 278 34 279 32 281 _c
30 283 29 286 29 288 _c
}_e{36 317 43 342 50 362 _c
56 382 67 400 81 417 _c
95 433 112 442 134 442 _c
156 442 176 435 194 422 _c
211 409 222 392 227 370 _c
245 391 265 408 287 422 _c
309 435 332 442 356 442 _c
384 442 408 434 429 419 _c
449 404 465 384 475 360 _c
485 336 491 310 491 282 _c
491 239 480 195 458 149 _c
436 103 406 65 369 35 _c
331 5 291 -10 248 -10 _c
}_e{228 -10 211 -4 195 6 _c
179 16 166 31 158 49 _c
113 -128 _l
111 -138 110 -143 110 -145 _c
110 -153 132 -158 176 -158 _c
182 -158 186 -162 186 -171 _c
184 -179 182 -185 180 -188 _c
178 -191 175 -193 169 -193 _c
-24 -193 _l
249 15 _m
272 15 293 24 313 43 _c
333 62 349 84 362 108 _c
370 126 379 147 387 173 _c
395 199 402 226 408 256 _c
414 285 417 308 417 326 _c
}_e{417 341 415 355 411 369 _c
407 382 400 393 391 402 _c
381 411 369 416 354 416 _c
329 416 306 407 284 390 _c
262 372 243 351 226 325 _c
226 322 _l
171 101 _l
175 77 184 56 197 40 _c
210 23 227 15 249 15 _c
_cl}_e}_d
end readonly def

/BuildGlyph
 {exch begin
 CharStrings exch
 2 copy known not{pop /.notdef}if
 true 3 1 roll get exec
 end}_d

/BuildChar {
 1 index /Encoding get exch get
 1 index /BuildGlyph get exec
}_d

FontName currentdict end definefont pop
%!PS-Adobe-3.0 Resource-Font
%%Title: DejaVu Sans
%%Copyright: Copyright (c) 2003 by Bitstream, Inc. All Rights Reserved. Copyright (c) 2006 by Tavmjong Bah. All Rights Reserved. DejaVu changes are in public domain 
%%Creator: Converted from TrueType to type 3 by PPR
25 dict begin
/_d{bind def}bind def
/_m{moveto}_d
/_l{lineto}_d
/_cl{closepath eofill}_d
/_c{curveto}_d
/_sc{7 -1 roll{setcachedevice}{pop pop pop pop pop pop}ifelse}_d
/_e{exec}_d
/FontName /DejaVuSans def
/PaintType 0 def
/FontMatrix[.001 0 0 .001 0 0]def
/FontBBox[-1021 -463 1793 1232]def
/FontType 3 def
/Encoding [ /space /A /F /M /P /S /a /b /d /e /f /g /h /i /l /n /o /p /r /s /t /u /otilde /tilde ] def
/FontInfo 10 dict dup begin
/FamilyName (DejaVu Sans) def
/FullName (DejaVu Sans) def
/Notice (Copyright (c) 2003 by Bitstream, Inc. All Rights Reserved. Copyright (c) 2006 by Tavmjong Bah. All Rights Reserved. DejaVu changes are in public domain ) def
/Weight (Book) def
/Version (Version 2.35) def
/ItalicAngle 0.0 def
/isFixedPitch false def
/UnderlinePosition -130 def
/UnderlineThickness 90 def
end readonly def
/CharStrings 24 dict dup begin
/space{318 0 0 0 0 0 _sc
}_d
/A{684 0 8 0 676 729 _sc
342 632 _m
208 269 _l
476 269 _l
342 632 _l
286 729 _m
398 729 _l
676 0 _l
573 0 _l
507 187 _l
178 187 _l
112 0 _l
8 0 _l
286 729 _l
_cl}_d
/F{575 0 98 0 517 729 _sc
98 729 _m
517 729 _l
517 646 _l
197 646 _l
197 431 _l
486 431 _l
486 348 _l
197 348 _l
197 0 _l
98 0 _l
98 729 _l
_cl}_d
/M{863 0 98 0 765 729 _sc
98 729 _m
245 729 _l
431 233 _l
618 729 _l
765 729 _l
765 0 _l
669 0 _l
669 640 _l
481 140 _l
382 140 _l
194 640 _l
194 0 _l
98 0 _l
98 729 _l
_cl}_d
/P{603 0 98 0 569 729 _sc
197 648 _m
197 374 _l
321 374 _l
367 374 402 385 427 409 _c
452 433 465 467 465 511 _c
465 555 452 588 427 612 _c
402 636 367 648 321 648 _c
197 648 _l
98 729 _m
321 729 _l
402 729 464 710 506 673 _c
548 636 569 582 569 511 _c
569 439 548 384 506 348 _c
464 311 402 293 321 293 _c
197 293 _l
197 0 _l
98 0 _l
98 729 _l
_cl}_d
/S{{635 0 66 -13 579 742 _sc
535 705 _m
535 609 _l
497 627 462 640 429 649 _c
395 657 363 662 333 662 _c
279 662 237 651 208 631 _c
179 610 165 580 165 542 _c
165 510 174 485 194 469 _c
213 452 250 439 304 429 _c
364 417 _l
437 403 491 378 526 343 _c
561 307 579 260 579 201 _c
579 130 555 77 508 41 _c
460 5 391 -13 300 -13 _c
265 -13 228 -9 189 -2 _c
}_e{150 5 110 16 69 32 _c
69 134 _l
109 111 148 94 186 83 _c
224 71 262 66 300 66 _c
356 66 399 77 430 99 _c
460 121 476 152 476 194 _c
476 230 465 258 443 278 _c
421 298 385 313 335 323 _c
275 335 _l
201 349 148 372 115 404 _c
82 435 66 478 66 534 _c
66 598 88 649 134 686 _c
179 723 242 742 322 742 _c
356 742 390 739 426 733 _c
461 727 497 717 535 705 _c
}_e{_cl}_e}_d
/a{{613 0 60 -13 522 560 _sc
343 275 _m
270 275 220 266 192 250 _c
164 233 150 205 150 165 _c
150 133 160 107 181 89 _c
202 70 231 61 267 61 _c
317 61 357 78 387 114 _c
417 149 432 196 432 255 _c
432 275 _l
343 275 _l
522 312 _m
522 0 _l
432 0 _l
432 83 _l
411 49 385 25 355 10 _c
325 -5 287 -13 243 -13 _c
187 -13 142 2 109 33 _c
76 64 60 106 60 159 _c
}_e{60 220 80 266 122 298 _c
163 329 224 345 306 345 _c
432 345 _l
432 354 _l
432 395 418 427 391 450 _c
364 472 326 484 277 484 _c
245 484 215 480 185 472 _c
155 464 127 453 100 439 _c
100 522 _l
132 534 164 544 195 550 _c
226 556 256 560 286 560 _c
365 560 424 539 463 498 _c
502 457 522 395 522 312 _c
_cl}_e}_d
/b{{635 0 91 -13 580 760 _sc
487 273 _m
487 339 473 390 446 428 _c
418 466 381 485 334 485 _c
286 485 249 466 222 428 _c
194 390 181 339 181 273 _c
181 207 194 155 222 117 _c
249 79 286 61 334 61 _c
381 61 418 79 446 117 _c
473 155 487 207 487 273 _c
181 464 _m
199 496 223 520 252 536 _c
281 552 316 560 356 560 _c
422 560 476 533 518 481 _c
559 428 580 359 580 273 _c
}_e{580 187 559 117 518 65 _c
476 13 422 -13 356 -13 _c
316 -13 281 -5 252 10 _c
223 25 199 49 181 82 _c
181 0 _l
91 0 _l
91 760 _l
181 760 _l
181 464 _l
_cl}_e}_d
/d{{635 0 55 -13 544 760 _sc
454 464 _m
454 760 _l
544 760 _l
544 0 _l
454 0 _l
454 82 _l
435 49 411 25 382 10 _c
353 -5 319 -13 279 -13 _c
213 -13 159 13 117 65 _c
75 117 55 187 55 273 _c
55 359 75 428 117 481 _c
159 533 213 560 279 560 _c
319 560 353 552 382 536 _c
411 520 435 496 454 464 _c
148 273 _m
148 207 161 155 188 117 _c
215 79 253 61 301 61 _c
}_e{348 61 385 79 413 117 _c
440 155 454 207 454 273 _c
454 339 440 390 413 428 _c
385 466 348 485 301 485 _c
253 485 215 466 188 428 _c
161 390 148 339 148 273 _c
_cl}_e}_d
/e{{615 0 55 -13 562 560 _sc
562 296 _m
562 252 _l
149 252 _l
153 190 171 142 205 110 _c
238 78 284 62 344 62 _c
378 62 412 66 444 74 _c
476 82 509 95 541 113 _c
541 28 _l
509 14 476 3 442 -3 _c
408 -9 373 -13 339 -13 _c
251 -13 182 12 131 62 _c
80 112 55 181 55 268 _c
55 357 79 428 127 481 _c
175 533 241 560 323 560 _c
397 560 455 536 498 489 _c
}_e{540 441 562 377 562 296 _c
472 322 _m
471 371 457 410 431 440 _c
404 469 368 484 324 484 _c
274 484 234 469 204 441 _c
174 413 156 373 152 322 _c
472 322 _l
_cl}_e}_d
/f{352 0 23 0 371 760 _sc
371 760 _m
371 685 _l
285 685 _l
253 685 230 678 218 665 _c
205 652 199 629 199 595 _c
199 547 _l
347 547 _l
347 477 _l
199 477 _l
199 0 _l
109 0 _l
109 477 _l
23 477 _l
23 547 _l
109 547 _l
109 585 _l
109 645 123 690 151 718 _c
179 746 224 760 286 760 _c
371 760 _l
_cl}_d
/g{{635 0 55 -207 544 560 _sc
454 280 _m
454 344 440 395 414 431 _c
387 467 349 485 301 485 _c
253 485 215 467 188 431 _c
161 395 148 344 148 280 _c
148 215 161 165 188 129 _c
215 93 253 75 301 75 _c
349 75 387 93 414 129 _c
440 165 454 215 454 280 _c
544 68 _m
544 -24 523 -93 482 -139 _c
440 -184 377 -207 292 -207 _c
260 -207 231 -204 203 -200 _c
175 -195 147 -188 121 -178 _c
}_e{121 -91 _l
147 -105 173 -115 199 -122 _c
225 -129 251 -133 278 -133 _c
336 -133 380 -117 410 -87 _c
439 -56 454 -10 454 52 _c
454 96 _l
435 64 411 40 382 24 _c
353 8 319 0 279 0 _c
211 0 157 25 116 76 _c
75 127 55 195 55 280 _c
55 364 75 432 116 483 _c
157 534 211 560 279 560 _c
319 560 353 552 382 536 _c
411 520 435 496 454 464 _c
454 547 _l
544 547 _l
}_e{544 68 _l
_cl}_e}_d
/h{634 0 91 0 549 760 _sc
549 330 _m
549 0 _l
459 0 _l
459 327 _l
459 379 448 417 428 443 _c
408 469 378 482 338 482 _c
289 482 251 466 223 435 _c
195 404 181 362 181 309 _c
181 0 _l
91 0 _l
91 760 _l
181 760 _l
181 462 _l
202 494 227 519 257 535 _c
286 551 320 560 358 560 _c
420 560 468 540 500 501 _c
532 462 549 405 549 330 _c
_cl}_d
/i{278 0 94 0 184 760 _sc
94 547 _m
184 547 _l
184 0 _l
94 0 _l
94 547 _l
94 760 _m
184 760 _l
184 646 _l
94 646 _l
94 760 _l
_cl}_d
/l{278 0 94 0 184 760 _sc
94 760 _m
184 760 _l
184 0 _l
94 0 _l
94 760 _l
_cl}_d
/n{634 0 91 0 549 560 _sc
549 330 _m
549 0 _l
459 0 _l
459 327 _l
459 379 448 417 428 443 _c
408 469 378 482 338 482 _c
289 482 251 466 223 435 _c
195 404 181 362 181 309 _c
181 0 _l
91 0 _l
91 547 _l
181 547 _l
181 462 _l
202 494 227 519 257 535 _c
286 551 320 560 358 560 _c
420 560 468 540 500 501 _c
532 462 549 405 549 330 _c
_cl}_d
/o{612 0 55 -13 557 560 _sc
306 484 _m
258 484 220 465 192 427 _c
164 389 150 338 150 273 _c
150 207 163 156 191 118 _c
219 80 257 62 306 62 _c
354 62 392 80 420 118 _c
448 156 462 207 462 273 _c
462 337 448 389 420 427 _c
392 465 354 484 306 484 _c
306 560 _m
384 560 445 534 490 484 _c
534 433 557 363 557 273 _c
557 183 534 113 490 63 _c
445 12 384 -13 306 -13 _c
227 -13 165 12 121 63 _c
77 113 55 183 55 273 _c
55 363 77 433 121 484 _c
165 534 227 560 306 560 _c
_cl}_d
/p{{635 0 91 -207 580 560 _sc
181 82 _m
181 -207 _l
91 -207 _l
91 547 _l
181 547 _l
181 464 _l
199 496 223 520 252 536 _c
281 552 316 560 356 560 _c
422 560 476 533 518 481 _c
559 428 580 359 580 273 _c
580 187 559 117 518 65 _c
476 13 422 -13 356 -13 _c
316 -13 281 -5 252 10 _c
223 25 199 49 181 82 _c
487 273 _m
487 339 473 390 446 428 _c
418 466 381 485 334 485 _c
}_e{286 485 249 466 222 428 _c
194 390 181 339 181 273 _c
181 207 194 155 222 117 _c
249 79 286 61 334 61 _c
381 61 418 79 446 117 _c
473 155 487 207 487 273 _c
_cl}_e}_d
/r{411 0 91 0 411 560 _sc
411 463 _m
401 469 390 473 378 476 _c
366 478 353 480 339 480 _c
288 480 249 463 222 430 _c
194 397 181 350 181 288 _c
181 0 _l
91 0 _l
91 547 _l
181 547 _l
181 462 _l
199 495 224 520 254 536 _c
284 552 321 560 365 560 _c
371 560 378 559 386 559 _c
393 558 401 557 411 555 _c
411 463 _l
_cl}_d
/s{{521 0 54 -13 472 560 _sc
443 531 _m
443 446 _l
417 458 391 468 364 475 _c
336 481 308 485 279 485 _c
234 485 200 478 178 464 _c
156 450 145 430 145 403 _c
145 382 153 366 169 354 _c
185 342 217 330 265 320 _c
296 313 _l
360 299 405 279 432 255 _c
458 230 472 195 472 151 _c
472 100 452 60 412 31 _c
372 1 316 -13 246 -13 _c
216 -13 186 -10 154 -5 _c
}_e{122 0 89 8 54 20 _c
54 113 _l
87 95 120 82 152 74 _c
184 65 216 61 248 61 _c
290 61 323 68 346 82 _c
368 96 380 117 380 144 _c
380 168 371 187 355 200 _c
339 213 303 226 247 238 _c
216 245 _l
160 257 119 275 95 299 _c
70 323 58 356 58 399 _c
58 450 76 490 112 518 _c
148 546 200 560 268 560 _c
301 560 332 557 362 552 _c
391 547 418 540 443 531 _c
}_e{_cl}_e}_d
/t{392 0 27 0 368 702 _sc
183 702 _m
183 547 _l
368 547 _l
368 477 _l
183 477 _l
183 180 _l
183 135 189 106 201 94 _c
213 81 238 75 276 75 _c
368 75 _l
368 0 _l
276 0 _l
206 0 158 13 132 39 _c
106 65 93 112 93 180 _c
93 477 _l
27 477 _l
27 547 _l
93 547 _l
93 702 _l
183 702 _l
_cl}_d
/u{634 0 85 -13 543 560 _sc
85 216 _m
85 547 _l
175 547 _l
175 219 _l
175 167 185 129 205 103 _c
225 77 255 64 296 64 _c
344 64 383 79 411 110 _c
439 141 453 183 453 237 _c
453 547 _l
543 547 _l
543 0 _l
453 0 _l
453 84 _l
431 50 405 26 377 10 _c
348 -5 315 -13 277 -13 _c
214 -13 166 6 134 45 _c
101 83 85 140 85 216 _c
311 560 _m
311 560 _l
_cl}_d
/otilde{612 0 55 -13 557 777 _sc
false CharStrings /o get exec
gsave 56 0 translate
false CharStrings /tilde get exec
grestore }_d
/tilde{{500 0 89 639 411 777 _sc
248 669 _m
220 696 _l
212 702 206 707 201 710 _c
195 713 191 715 187 715 _c
174 715 165 709 159 697 _c
153 685 150 665 150 639 _c
89 639 _l
89 683 98 717 115 741 _c
131 765 154 777 184 777 _c
196 777 208 774 218 770 _c
228 765 240 757 252 747 _c
280 720 _l
287 713 293 708 299 705 _c
304 702 309 701 313 701 _c
325 701 334 707 340 719 _c
}_e{346 731 349 750 350 777 _c
411 777 _l
410 733 401 699 385 675 _c
368 651 345 639 316 639 _c
303 639 291 641 281 646 _c
271 650 260 658 248 669 _c
_cl}_e}_d
end readonly def

/BuildGlyph
 {exch begin
 CharStrings exch
 2 copy known not{pop /.notdef}if
 true 3 1 roll get exec
 end}_d

/BuildChar {
 1 index /Encoding get exch get
 1 index /BuildGlyph get exec
}_d

FontName currentdict end definefont pop
end
%%EndProlog
mpldict begin
18 180 translate
576 432 0 0 clipbox
gsave
0 0 m
576 0 l
576 432 l
0 432 l
cl
1.000 setgray
fill
grestore
gsave
72 56.16 m
518.4 56.16 l
518.4 401.76 l
72 401.76 l
cl
1.000 setgray
fill
grestore
1.000 setlinewidth
1 setlinejoin
0 setlinecap
[6 6] 0 setdash
0.667 setgray
gsave
446.4 345.6 72 56.16 clipbox
72 56.16 m
72 401.76 l
stroke
grestore
gsave
446.4 345.6 72 56.16 clipbox
136.99 56.16 m
136.99 401.76 l
stroke
grestore
gsave
446.4 345.6 72 56.16 clipbox
201.98 56.16 m
201.98 401.76 l
stroke
grestore
gsave
446.4 345.6 72 56.16 clipbox
266.97 56.16 m
266.97 401.76 l
stroke
grestore
gsave
446.4 345.6 72 56.16 clipbox
331.96 56.16 m
331.96 401.76 l
stroke
grestore
gsave
446.4 345.6 72 56.16 clipbox
396.95 56.16 m
396.95 401.76 l
stroke
grestore
gsave
446.4 345.6 72 56.16 clipbox
461.94 56.16 m
461.94 401.76 l
stroke
grestore
0.000 setgray
gsave
281.200000 39.160000 translate
0.000000 rotate
/Cmmi10 findfont
16.0 scalefont
setfont
0.000000 0.546875 moveto
/A glyphshow

12.000000 0.546875 moveto
/e glyphshow

19.437500 0.546875 moveto
/g glyphshow


grestore
gsave
63.000000 190.460000 translate
90.000000 rotate
/Cmmi10 findfont
16.0 scalefont
setfont
0.000000 0.546875 moveto
/A glyphshow

12.000000 0.546875 moveto
/m glyphshow

26.046875 0.546875 moveto
/p glyphshow

34.093750 0.546875 moveto
/l glyphshow

38.859375 0.546875 moveto
/i glyphshow

44.367188 0.546875 moveto
/t glyphshow

50.140625 0.546875 moveto
/u glyphshow

59.289062 0.546875 moveto
/u glyphshow

68.437500 0.546875 moveto
/d glyphshow


grestore
3.000 setlinewidth
2 setlinecap
[] 0 setdash
0.000 0.000 1.000 setrgbcolor
gsave
446.4 345.6 72 56.16 clipbox
72 304.408 m
75.6557 304.912 l
78.9052 305.574 l
82.1547 306.451 l
85.4042 307.553 l
88.6537 308.893 l
91.9032 310.48 l
95.1527 312.321 l
98.4022 314.418 l
101.652 316.771 l
105.307 319.714 l
108.963 322.948 l
113.025 326.846 l
117.899 331.861 l
125.211 339.768 l
135.365 350.708 l
139.021 354.206 l
142.27 356.998 l
145.114 359.141 l
147.551 360.722 l
149.988 362.042 l
152.425 363.08 l
154.456 363.716 l
156.487 364.135 l
158.518 364.33 l
160.549 364.296 l
162.58 364.03 l
164.611 363.531 l
166.642 362.8 l
168.673 361.841 l
170.704 360.66 l
173.141 358.96 l
175.578 356.969 l
178.015 354.71 l
180.858 351.77 l
184.108 348.068 l
188.17 343.05 l
194.262 335.082 l
200.761 326.662 l
204.417 322.258 l
207.667 318.687 l
210.51 315.9 l
212.947 313.804 l
215.384 312.01 l
217.415 310.765 l
219.446 309.759 l
221.477 309.002 l
223.508 308.502 l
225.539 308.265 l
227.57 308.291 l
229.601 308.581 l
231.632 309.133 l
233.663 309.94 l
235.694 310.995 l
237.724 312.287 l
240.162 314.133 l
242.599 316.277 l
245.442 319.113 l
248.285 322.258 l
251.941 326.662 l
256.815 332.939 l
260.877 338.463 l
266.564 345.882 l
270.219 350.298 l
273.469 353.868 l
276.312 356.65 l
278.749 358.744 l
281.187 360.546 l
283.624 362.034 l
285.655 363.024 l
287.686 363.78 l
289.716 364.298 l
291.747 364.577 l
293.778 364.618 l
295.809 364.423 l
297.84 363.998 l
299.871 363.35 l
301.902 362.489 l
304.339 361.188 l
306.776 359.618 l
309.213 357.801 l
312.057 355.408 l
315.306 352.367 l
318.962 348.642 l
323.836 343.35 l
324.649 342.347 l
336.022 330.069 l
340.49 325.61 l
344.552 321.876 l
348.207 318.82 l
351.457 316.366 l
354.706 314.168 l
357.956 312.227 l
361.205 310.538 l
364.455 309.092 l
367.704 307.877 l
371.36 306.765 l
375.016 305.902 l
378.672 305.265 l
382.733 304.801 l
386.795 304.574 l
390.857 304.574 l
394.919 304.801 l
398.981 305.265 l
402.637 305.902 l
406.292 306.765 l
409.948 307.877 l
413.197 309.092 l
416.447 310.538 l
419.696 312.227 l
422.946 314.168 l
426.195 316.366 l
429.445 318.82 l
433.101 321.876 l
436.756 325.222 l
440.818 329.234 l
446.099 334.799 l
453.41 342.79 l
454.222 343.8 l
459.503 349.493 l
463.565 353.541 l
466.814 356.467 l
469.658 358.739 l
472.095 360.435 l
474.532 361.874 l
476.969 363.031 l
479 363.765 l
481.031 364.28 l
483.062 364.568 l
485.093 364.622 l
487.124 364.438 l
489.155 364.016 l
491.185 363.355 l
493.216 362.458 l
495.247 361.33 l
497.278 359.979 l
499.715 358.078 l
502.153 355.89 l
504.996 353.012 l
508.245 349.35 l
511.901 344.854 l
516.775 338.463 l
518.4 336.283 l
518.4 336.283 l
stroke
grestore
1.000 setlinewidth
1.000 0.000 0.000 setrgbcolor
gsave
446.4 345.6 72 56.16 clipbox
72 270.233 m
74.0309 270.536 l
76.8742 271.241 l
79.7176 271.925 l
81.7485 272.17 l
83.3732 272.131 l
84.998 271.855 l
86.6227 271.354 l
89.0599 270.306 l
91.9032 269.053 l
93.5279 268.587 l
94.7465 268.468 l
95.9651 268.608 l
97.1836 269.049 l
98.4022 269.822 l
99.6207 270.935 l
100.839 272.376 l
102.464 274.743 l
104.495 278.191 l
107.338 283.095 l
108.557 284.877 l
109.775 286.274 l
110.588 286.928 l
111.4 287.318 l
112.213 287.415 l
113.025 287.193 l
113.837 286.631 l
114.65 285.716 l
115.462 284.445 l
116.274 282.818 l
117.493 279.741 l
118.712 275.969 l
120.336 270.074 l
123.586 256.924 l
125.211 250.735 l
126.429 246.738 l
127.648 243.56 l
128.46 242.001 l
128.866 241.313 l
129.679 240.526 l
130.085 240.348 l
130.491 240.318 l
130.897 240.442 l
131.303 240.72 l
132.116 241.749 l
132.928 243.41 l
133.74 245.696 l
134.553 248.583 l
135.771 253.957 l
136.99 260.421 l
138.615 270.31 l
143.489 301.386 l
144.708 307.606 l
145.926 312.536 l
146.738 314.975 l
147.551 316.661 l
147.957 317.207 l
148.363 317.548 l
148.769 317.68 l
149.176 317.603 l
149.582 317.314 l
149.988 316.813 l
150.8 315.182 l
151.613 312.73 l
152.425 309.496 l
153.644 303.305 l
154.862 295.735 l
156.487 284.059 l
161.767 244.481 l
162.986 237.395 l
164.205 231.808 l
165.017 229.033 l
165.829 227.078 l
166.235 226.418 l
166.642 225.974 l
167.048 225.745 l
167.454 225.733 l
167.86 225.935 l
168.266 226.35 l
168.673 226.973 l
169.485 228.828 l
170.297 231.449 l
171.11 234.773 l
172.328 240.902 l
173.953 250.706 l
180.046 289.8 l
181.264 295.515 l
182.077 298.609 l
182.889 301.08 l
183.702 302.901 l
184.514 304.062 l
184.92 304.395 l
185.326 304.566 l
185.732 304.577 l
186.139 304.431 l
186.545 304.134 l
187.357 303.106 l
188.17 301.542 l
188.982 299.502 l
190.201 295.699 l
191.825 289.641 l
196.7 270.598 l
197.918 266.829 l
199.137 263.774 l
199.949 262.171 l
200.761 260.928 l
201.574 260.042 l
202.386 259.504 l
203.199 259.297 l
204.011 259.393 l
204.823 259.762 l
205.636 260.368 l
206.854 261.632 l
208.479 263.763 l
212.541 269.399 l
214.166 271.161 l
215.384 272.177 l
216.603 272.923 l
217.821 273.414 l
219.04 273.686 l
220.665 273.789 l
223.102 273.643 l
227.57 273.347 l
231.225 273.128 l
232.85 272.79 l
234.069 272.35 l
235.287 271.711 l
236.506 270.859 l
238.131 269.403 l
240.162 267.191 l
243.411 263.595 l
244.63 262.583 l
245.442 262.109 l
246.254 261.837 l
247.067 261.8 l
247.879 262.028 l
248.692 262.543 l
249.504 263.363 l
250.316 264.498 l
251.129 265.95 l
252.347 268.704 l
253.566 272.088 l
255.191 277.382 l
260.471 295.685 l
261.69 298.735 l
262.502 300.257 l
263.314 301.297 l
264.127 301.806 l
264.533 301.847 l
264.939 301.741 l
265.345 301.483 l
266.158 300.505 l
266.97 298.905 l
267.782 296.685 l
268.595 293.867 l
269.813 288.594 l
271.032 282.227 l
272.657 272.463 l
277.531 241.866 l
278.749 235.832 l
279.968 231.124 l
280.78 228.854 l
281.593 227.352 l
281.999 226.904 l
282.405 226.664 l
282.811 226.635 l
283.217 226.818 l
283.624 227.215 l
284.03 227.825 l
284.842 229.677 l
285.655 232.348 l
286.467 235.795 l
287.686 242.284 l
288.904 250.11 l
290.529 262.036 l
294.997 296.192 l
296.215 303.923 l
297.434 310.286 l
298.246 313.633 l
299.059 316.19 l
299.871 317.915 l
300.277 318.456 l
300.684 318.782 l
301.09 318.89 l
301.496 318.782 l
301.902 318.461 l
302.308 317.928 l
303.121 316.246 l
303.933 313.782 l
304.745 310.596 l
305.964 304.63 l
307.183 297.511 l
309.213 284.036 l
312.463 262.145 l
314.088 252.828 l
315.306 247.117 l
316.119 244.032 l
316.931 241.575 l
317.743 239.774 l
318.556 238.639 l
318.962 238.322 l
319.368 238.17 l
319.774 238.18 l
320.181 238.349 l
320.587 238.673 l
321.399 239.766 l
322.211 241.412 l
323.024 243.556 l
323.836 246.133 l
325.867 254.03 l
331.554 277.89 l
332.772 281.816 l
333.991 284.971 l
334.803 286.608 l
335.616 287.859 l
336.428 288.721 l
337.24 289.203 l
338.053 289.32 l
338.865 289.095 l
339.678 288.555 l
340.49 287.736 l
341.708 286.066 l
342.927 283.99 l
344.958 280.022 l
347.801 274.458 l
349.426 271.759 l
350.645 270.104 l
351.863 268.812 l
353.082 267.9 l
354.3 267.358 l
355.519 267.16 l
356.737 267.262 l
357.956 267.607 l
359.581 268.339 l
365.674 271.506 l
367.298 271.987 l
368.923 272.227 l
370.548 272.242 l
372.579 272.014 l
379.89 270.886 l
381.921 270.956 l
383.952 271.262 l
386.389 271.868 l
391.67 273.302 l
393.7 273.603 l
395.731 273.667 l
397.762 273.498 l
400.606 272.984 l
404.261 272.299 l
406.292 272.159 l
407.917 272.257 l
409.542 272.567 l
411.573 273.231 l
414.416 274.478 l
416.853 275.478 l
418.478 275.883 l
419.696 275.955 l
420.915 275.773 l
422.134 275.296 l
423.352 274.501 l
424.571 273.38 l
425.789 271.946 l
427.414 269.611 l
429.445 266.233 l
432.288 261.452 l
433.507 259.717 l
434.725 258.357 l
435.538 257.721 l
436.35 257.341 l
437.163 257.247 l
437.975 257.464 l
438.787 258.012 l
439.6 258.903 l
440.412 260.144 l
441.224 261.732 l
442.443 264.739 l
443.662 268.428 l
445.286 274.205 l
448.13 285.516 l
450.161 293.237 l
451.379 297.191 l
452.598 300.347 l
453.41 301.901 l
453.816 302.591 l
454.629 303.387 l
455.035 303.573 l
455.441 303.612 l
455.847 303.5 l
456.253 303.235 l
457.066 302.236 l
457.878 300.611 l
458.69 298.365 l
459.503 295.521 l
460.721 290.212 l
461.94 283.812 l
463.565 273.998 l
468.439 243.02 l
469.658 236.792 l
470.876 231.843 l
471.688 229.387 l
472.501 227.682 l
472.907 227.126 l
473.313 226.775 l
473.719 226.632 l
474.126 226.7 l
474.532 226.979 l
474.938 227.47 l
475.75 229.085 l
476.563 231.524 l
477.375 234.748 l
478.594 240.934 l
479.812 248.511 l
481.437 260.215 l
486.717 299.998 l
487.936 307.137 l
489.155 312.772 l
489.967 315.573 l
490.779 317.55 l
491.185 318.219 l
491.592 318.671 l
491.998 318.905 l
492.404 318.921 l
492.81 318.721 l
493.216 318.307 l
493.623 317.682 l
494.435 315.82 l
495.247 313.184 l
496.06 309.838 l
497.278 303.666 l
498.903 293.788 l
504.996 254.377 l
506.214 248.619 l
507.027 245.503 l
507.839 243.016 l
508.652 241.184 l
509.464 240.019 l
509.87 239.686 l
510.276 239.517 l
510.682 239.509 l
511.089 239.658 l
511.495 239.961 l
512.307 241.003 l
513.12 242.585 l
513.932 244.646 l
515.151 248.483 l
516.775 254.589 l
518.4 261.235 l
518.4 261.235 l
stroke
grestore
0.000 0.500 0.000 setrgbcolor
gsave
446.4 345.6 72 56.16 clipbox
72 228.946 m
72.4062 228.954 l
72.8124 228.888 l
73.6247 228.529 l
74.4371 227.867 l
75.2495 226.899 l
76.0619 225.626 l
77.2804 223.148 l
78.499 219.999 l
79.7176 216.204 l
81.3423 210.197 l
82.9671 203.222 l
84.998 193.398 l
88.2475 176.238 l
91.0908 161.58 l
92.7156 154.265 l
93.9341 149.656 l
95.1527 146.035 l
95.9651 144.274 l
96.7774 143.106 l
97.1836 142.761 l
97.5898 142.584 l
97.996 142.581 l
98.4022 142.757 l
98.8084 143.116 l
99.2146 143.664 l
100.027 145.334 l
100.839 147.784 l
101.652 151.011 l
102.464 155 l
103.683 162.321 l
104.901 171.041 l
106.932 187.685 l
109.775 211.173 l
110.994 219.397 l
111.806 223.711 l
112.619 226.845 l
113.025 227.911 l
113.431 228.614 l
113.837 228.939 l
114.243 228.869 l
114.65 228.394 l
115.056 227.507 l
115.462 226.204 l
116.274 222.357 l
117.087 216.919 l
117.899 210.036 l
119.118 197.527 l
122.773 156.588 l
123.586 149.916 l
124.398 145.191 l
124.804 143.683 l
125.211 142.799 l
125.617 142.568 l
126.023 143.009 l
126.429 144.133 l
126.835 145.937 l
127.648 151.521 l
128.46 159.507 l
129.679 174.99 l
132.522 214.237 l
133.334 222.258 l
134.147 227.348 l
134.553 228.61 l
134.959 228.951 l
135.365 228.345 l
135.771 226.788 l
136.178 224.298 l
136.99 216.698 l
137.802 206.13 l
139.427 179.99 l
140.646 160.958 l
141.458 151.029 l
142.27 144.637 l
142.677 143.029 l
143.083 142.566 l
143.489 143.278 l
143.895 145.159 l
144.301 148.171 l
145.114 157.278 l
145.926 169.666 l
148.769 217.356 l
149.582 225.512 l
149.988 227.848 l
150.394 228.901 l
150.8 228.63 l
151.207 227.035 l
151.613 224.154 l
152.425 214.906 l
153.237 201.989 l
155.675 158.342 l
156.487 148.357 l
156.893 145.094 l
157.299 143.142 l
157.706 142.565 l
158.112 143.385 l
158.518 145.576 l
158.924 149.067 l
159.736 159.461 l
160.955 180.828 l
162.58 210.301 l
163.392 221.209 l
163.798 225.035 l
164.205 227.606 l
164.611 228.845 l
165.017 228.721 l
165.423 227.243 l
165.829 224.466 l
166.642 215.431 l
167.454 202.789 l
170.297 154.428 l
171.11 146.257 l
171.516 143.864 l
171.922 142.687 l
172.328 142.745 l
172.734 144.022 l
173.141 146.467 l
173.547 149.996 l
174.359 159.837 l
175.578 179.221 l
177.203 206.163 l
178.015 217.004 l
178.827 224.67 l
179.233 227.101 l
179.64 228.535 l
180.046 228.957 l
180.452 228.375 l
180.858 226.823 l
181.264 224.357 l
182.077 216.992 l
182.889 207.055 l
184.92 177.311 l
186.139 160.99 l
186.951 152.446 l
187.763 146.4 l
188.17 144.414 l
188.576 143.142 l
188.982 142.588 l
189.388 142.74 l
189.794 143.576 l
190.201 145.064 l
191.013 149.816 l
191.825 156.573 l
193.044 169.349 l
196.293 206.272 l
197.512 216.931 l
198.324 222.284 l
199.137 226.086 l
199.543 227.391 l
199.949 228.3 l
200.355 228.819 l
200.761 228.957 l
201.168 228.728 l
201.574 228.147 l
201.98 227.232 l
202.792 224.485 l
203.605 220.663 l
204.823 213.34 l
206.448 201.639 l
210.51 171.153 l
212.135 161.062 l
213.353 154.828 l
214.572 149.857 l
215.384 147.266 l
216.197 145.252 l
217.009 143.809 l
217.821 142.921 l
218.227 142.679 l
218.634 142.568 l
219.04 142.586 l
219.446 142.729 l
220.258 143.378 l
221.071 144.488 l
221.883 146.033 l
222.696 147.984 l
223.914 151.61 l
225.133 155.994 l
226.757 162.852 l
228.788 172.729 l
231.225 185.852 l
235.694 210.143 l
237.318 217.7 l
238.537 222.413 l
239.349 224.961 l
240.162 226.946 l
240.974 228.29 l
241.38 228.699 l
241.786 228.92 l
242.193 228.946 l
242.599 228.769 l
243.005 228.382 l
243.411 227.778 l
244.223 225.901 l
245.036 223.109 l
245.848 219.394 l
246.661 214.775 l
247.879 206.269 l
249.098 196.163 l
251.535 173.405 l
253.16 158.973 l
254.378 150.236 l
255.191 145.995 l
256.003 143.36 l
256.409 142.722 l
256.815 142.569 l
257.221 142.922 l
257.628 143.794 l
258.034 145.19 l
258.846 149.556 l
259.659 155.934 l
260.471 164.093 l
261.69 178.839 l
264.533 214.669 l
265.345 222.102 l
266.158 227.031 l
266.564 228.39 l
266.97 228.947 l
267.376 228.671 l
267.782 227.544 l
268.189 225.571 l
268.595 222.77 l
269.407 214.86 l
270.219 204.352 l
271.844 179.035 l
273.063 160.729 l
273.875 151.11 l
274.688 144.8 l
275.094 143.138 l
275.5 142.56 l
275.906 143.1 l
276.312 144.762 l
276.718 147.518 l
277.531 156.058 l
278.343 167.907 l
281.593 220.42 l
281.999 224.334 l
282.405 227.108 l
282.811 228.648 l
283.217 228.897 l
283.624 227.833 l
284.03 225.478 l
284.436 221.895 l
285.248 211.485 l
286.467 190.306 l
288.092 161.037 l
288.904 150.166 l
289.31 146.361 l
289.716 143.825 l
290.123 142.644 l
290.529 142.86 l
290.935 144.47 l
291.341 147.423 l
292.154 156.942 l
292.966 170.191 l
295.403 214.094 l
296.215 223.776 l
296.622 226.835 l
297.028 228.566 l
297.434 228.917 l
297.84 227.883 l
298.246 225.501 l
298.653 221.855 l
299.465 211.295 l
300.684 190.072 l
302.308 161.215 l
303.121 150.53 l
303.527 146.735 l
303.933 144.124 l
304.339 142.763 l
304.745 142.682 l
305.152 143.871 l
305.558 146.28 l
305.964 149.828 l
306.776 159.851 l
307.995 179.749 l
309.62 207.295 l
310.432 218.159 l
311.244 225.554 l
311.651 227.728 l
312.057 228.822 l
312.463 228.827 l
312.869 227.758 l
313.275 225.661 l
313.682 222.604 l
314.494 213.986 l
315.712 196.649 l
317.743 165.486 l
318.556 155.407 l
319.368 147.955 l
319.774 145.38 l
320.181 143.625 l
320.587 142.708 l
320.993 142.628 l
321.399 143.369 l
321.805 144.899 l
322.211 147.171 l
323.024 153.7 l
323.836 162.371 l
325.461 183.288 l
327.086 204.205 l
328.304 216.872 l
329.117 223.036 l
329.929 227.066 l
330.335 228.243 l
330.741 228.858 l
331.148 228.918 l
331.554 228.436 l
331.96 227.433 l
332.366 225.935 l
333.179 221.587 l
333.991 215.692 l
335.209 204.715 l
339.678 160.916 l
340.896 152.349 l
341.708 148.06 l
342.521 144.991 l
343.333 143.165 l
343.739 142.713 l
344.146 142.56 l
344.552 142.7 l
344.958 143.122 l
345.364 143.816 l
346.177 145.966 l
346.989 149.036 l
347.801 152.898 l
349.02 159.882 l
350.645 170.693 l
355.113 201.598 l
356.737 210.975 l
357.956 216.851 l
359.175 221.608 l
359.987 224.127 l
360.799 226.115 l
361.612 227.572 l
362.424 228.505 l
363.236 228.929 l
363.643 228.955 l
364.049 228.861 l
364.861 228.323 l
365.674 227.342 l
366.486 225.947 l
367.298 224.166 l
368.517 220.846 l
369.735 216.846 l
371.36 210.655 l
373.391 201.923 l
377.453 183.056 l
380.296 170.319 l
382.327 162.141 l
383.952 156.399 l
385.577 151.518 l
386.795 148.491 l
388.014 146.054 l
389.232 144.24 l
390.045 143.389 l
390.857 142.834 l
391.67 142.578 l
392.482 142.625 l
393.294 142.976 l
394.107 143.631 l
394.919 144.588 l
395.731 145.846 l
396.95 148.282 l
398.169 151.359 l
399.387 155.042 l
401.012 160.822 l
402.637 167.476 l
404.668 176.769 l
407.917 192.916 l
411.167 208.737 l
412.791 215.711 l
414.01 220.235 l
415.228 223.974 l
416.041 225.952 l
416.853 227.467 l
417.666 228.474 l
418.072 228.774 l
418.478 228.934 l
418.884 228.948 l
419.29 228.812 l
419.696 228.524 l
420.509 227.476 l
421.321 225.787 l
422.134 223.448 l
422.946 220.459 l
424.165 214.795 l
425.383 207.811 l
427.008 196.781 l
429.445 178.04 l
431.476 162.631 l
432.694 154.602 l
433.913 148.21 l
434.725 145.144 l
435.538 143.217 l
435.944 142.723 l
436.35 142.56 l
436.756 142.741 l
437.163 143.273 l
437.569 144.164 l
437.975 145.416 l
438.787 149 l
439.6 153.979 l
440.412 160.248 l
441.631 171.67 l
443.662 193.77 l
445.286 210.839 l
446.505 221.016 l
447.317 225.757 l
447.723 227.375 l
448.13 228.443 l
448.536 228.93 l
448.942 228.815 l
449.348 228.082 l
449.754 226.727 l
450.161 224.753 l
450.973 219.02 l
451.785 211.122 l
453.004 196.148 l
455.847 158.186 l
456.66 150.154 l
457.472 144.772 l
457.878 143.255 l
458.284 142.589 l
458.69 142.807 l
459.097 143.923 l
459.503 145.93 l
459.909 148.804 l
460.721 156.948 l
461.534 167.755 l
465.189 221.299 l
465.596 224.748 l
466.002 227.218 l
466.408 228.629 l
466.814 228.929 l
467.22 228.092 l
467.627 226.126 l
468.033 223.066 l
468.845 213.97 l
469.658 201.701 l
472.501 154.446 l
473.313 146.224 l
473.719 143.813 l
474.126 142.659 l
474.532 142.807 l
474.938 144.264 l
475.344 146.997 l
475.75 150.932 l
476.563 161.915 l
477.781 183.502 l
479.406 212.325 l
480.218 222.599 l
480.625 226.04 l
481.031 228.185 l
481.437 228.958 l
481.843 228.332 l
482.249 226.323 l
482.656 222.994 l
483.468 212.843 l
484.28 199.186 l
486.311 161.811 l
487.124 150.659 l
487.53 146.713 l
487.936 144.035 l
488.342 142.706 l
488.748 142.765 l
489.155 144.205 l
489.561 146.973 l
490.373 156.078 l
491.185 168.881 l
493.623 212.149 l
494.435 222.256 l
494.841 225.702 l
495.247 227.941 l
495.654 228.916 l
496.06 228.613 l
496.466 227.053 l
496.872 224.296 l
497.684 215.597 l
498.497 203.605 l
501.34 157.022 l
502.153 148.291 l
502.559 145.349 l
502.965 143.443 l
503.371 142.603 l
503.777 142.832 l
504.183 144.103 l
504.59 146.367 l
505.402 153.562 l
506.214 163.613 l
507.839 188.108 l
509.058 205.99 l
509.87 215.843 l
510.682 223.204 l
511.089 225.802 l
511.495 227.633 l
511.901 228.682 l
512.307 228.951 l
512.713 228.455 l
513.12 227.225 l
513.526 225.3 l
514.338 219.587 l
515.151 211.828 l
516.369 197.68 l
518.4 172.621 l
518.4 172.621 l
stroke
grestore
0.000 setgray
gsave
446.4 345.6 72 56.16 clipbox
72 129.579 m
73.2186 135.362 l
74.0309 138.368 l
74.8433 140.607 l
75.6557 142.018 l
76.0619 142.398 l
76.4681 142.555 l
76.8742 142.487 l
77.2804 142.192 l
77.6866 141.668 l
78.499 139.941 l
79.3114 137.324 l
80.1237 133.857 l
81.3423 127.202 l
82.5609 119.061 l
84.1856 106.562 l
88.2475 74.3874 l
89.4661 66.7085 l
90.2784 62.5787 l
91.0908 59.3907 l
91.9032 57.2501 l
92.3094 56.5987 l
92.7156 56.2375 l
93.1217 56.1716 l
93.5279 56.4048 l
93.9341 56.9384 l
94.3403 57.7719 l
95.1527 60.3253 l
95.9651 64.0162 l
96.7774 68.7605 l
97.996 77.5825 l
99.6207 91.6575 l
103.276 124.563 l
104.495 133.074 l
105.307 137.425 l
106.12 140.52 l
106.526 141.555 l
106.932 142.231 l
107.338 142.54 l
107.744 142.475 l
108.151 142.036 l
108.557 141.222 l
108.963 140.037 l
109.775 136.592 l
110.588 131.803 l
111.4 125.825 l
112.619 115.081 l
115.056 90.5053 l
116.681 75.121 l
117.899 65.8142 l
118.712 61.1508 l
119.524 57.9488 l
119.93 56.94 l
120.336 56.3418 l
120.742 56.1611 l
121.149 56.4006 l
121.555 57.0588 l
121.961 58.13 l
122.773 61.4676 l
123.586 66.2864 l
124.398 72.3983 l
125.617 83.4535 l
128.46 112.72 l
129.272 120.847 l
130.491 130.859 l
131.303 136.036 l
132.116 139.785 l
132.522 141.081 l
132.928 141.976 l
133.334 142.463 l
133.74 142.54 l
134.147 142.21 l
134.553 141.479 l
134.959 140.355 l
135.771 136.989 l
136.584 132.262 l
137.802 123.06 l
139.427 108.153 l
142.27 81.0155 l
143.489 71.2571 l
144.301 65.9028 l
145.114 61.6399 l
145.926 58.5662 l
146.332 57.4939 l
146.738 56.736 l
147.145 56.2925 l
147.551 56.1609 l
147.957 56.3366 l
148.363 56.8124 l
148.769 57.5793 l
149.582 59.9401 l
150.394 63.3105 l
151.207 67.5593 l
152.425 75.254 l
154.05 87.1433 l
157.706 114.702 l
159.33 124.979 l
160.549 131.285 l
161.767 136.223 l
162.58 138.721 l
163.392 140.583 l
164.205 141.82 l
165.017 142.455 l
165.423 142.556 l
165.829 142.52 l
166.235 142.35 l
167.048 141.633 l
167.86 140.45 l
168.673 138.849 l
169.891 135.772 l
171.11 132.032 l
172.734 126.288 l
175.172 116.727 l
180.452 95.7966 l
182.889 87.1778 l
184.92 80.7543 l
186.951 75.0695 l
188.982 70.1306 l
190.607 66.7099 l
192.231 63.7547 l
193.856 61.2626 l
195.481 59.2393 l
196.7 58.0377 l
197.918 57.1185 l
199.137 56.4962 l
200.355 56.1893 l
201.168 56.1714 l
201.98 56.3114 l
202.792 56.618 l
203.605 57.1 l
204.417 57.7674 l
205.636 59.1375 l
206.854 60.9807 l
208.073 63.3305 l
209.291 66.2167 l
210.51 69.6631 l
211.728 73.6845 l
213.353 79.9392 l
214.978 87.1652 l
217.009 97.3602 l
223.508 131.547 l
224.726 136.357 l
225.539 138.917 l
226.351 140.858 l
227.164 142.097 l
227.57 142.429 l
227.976 142.558 l
228.382 142.478 l
228.788 142.18 l
229.195 141.66 l
230.007 139.937 l
230.819 137.291 l
231.632 133.728 l
232.444 129.282 l
233.663 121.104 l
235.287 107.963 l
239.755 69.7627 l
240.568 64.5571 l
241.38 60.4559 l
242.193 57.6471 l
242.599 56.7756 l
243.005 56.2794 l
243.411 56.1695 l
243.817 56.4534 l
244.223 57.1347 l
244.63 58.2133 l
245.442 61.541 l
246.254 66.3518 l
247.067 72.4949 l
248.285 83.7229 l
250.722 109.663 l
252.347 125.651 l
253.16 132.168 l
253.972 137.286 l
254.784 140.761 l
255.191 141.827 l
255.597 142.424 l
256.003 142.545 l
256.409 142.187 l
256.815 141.351 l
257.221 140.048 l
258.034 136.095 l
258.846 130.245 l
260.065 119.204 l
261.69 101.617 l
263.72 79.5428 l
264.939 68.6151 l
265.751 62.984 l
266.564 58.9532 l
266.97 57.5885 l
267.376 56.6744 l
267.782 56.217 l
268.189 56.2171 l
268.595 56.6706 l
269.001 57.5683 l
269.407 58.8963 l
270.219 62.7655 l
271.032 68.0835 l
272.25 78.2221 l
273.875 94.1951 l
276.312 118.249 l
277.531 128.217 l
278.343 133.589 l
279.156 137.77 l
279.968 140.669 l
280.374 141.623 l
280.78 142.244 l
281.187 142.535 l
281.593 142.501 l
281.999 142.148 l
282.405 141.487 l
283.217 139.29 l
284.03 136.025 l
284.842 131.832 l
286.061 124.15 l
287.686 112.191 l
291.341 84.3621 l
292.966 73.9755 l
294.185 67.5979 l
295.403 62.5989 l
296.215 60.0662 l
297.028 58.1761 l
297.84 56.9174 l
298.653 56.2685 l
299.059 56.164 l
299.465 56.2002 l
299.871 56.3724 l
300.684 57.1046 l
301.496 58.3171 l
302.308 59.9642 l
303.527 63.1459 l
304.745 67.0377 l
306.37 73.0632 l
308.807 83.213 l
314.9 109.163 l
316.931 116.821 l
318.962 123.646 l
320.587 128.429 l
322.211 132.565 l
323.836 136.022 l
324.649 137.338 l
325.867 139.26 l
327.086 140.753 l
328.304 141.806 l
329.117 142.258 l
329.929 142.508 l
330.741 142.551 l
331.554 142.387 l
332.366 142.012 l
333.179 141.424 l
333.991 140.623 l
335.209 139.017 l
336.428 136.927 l
337.647 134.355 l
338.865 131.31 l
340.49 126.539 l
342.115 121.009 l
344.146 113.155 l
346.583 102.667 l
353.082 73.7383 l
354.706 67.6457 l
355.925 63.7354 l
357.144 60.525 l
357.956 58.8302 l
358.768 57.5276 l
359.581 56.6451 l
360.393 56.2069 l
360.799 56.1607 l
361.205 56.2325 l
362.018 56.7365 l
362.83 57.7281 l
363.643 59.2107 l
364.455 61.1808 l
365.267 63.6282 l
366.486 68.1543 l
367.704 73.6248 l
369.329 82.1643 l
371.36 94.2676 l
375.828 121.637 l
377.453 129.983 l
378.672 135.104 l
379.484 137.857 l
380.296 140.016 l
381.109 141.536 l
381.921 142.383 l
382.327 142.545 l
382.733 142.53 l
383.14 142.336 l
383.546 141.963 l
384.358 140.682 l
385.171 138.696 l
385.983 136.029 l
386.795 132.716 l
388.014 126.645 l
389.232 119.446 l
390.857 108.559 l
395.731 74.6704 l
396.95 67.835 l
398.169 62.3439 l
398.981 59.5694 l
399.793 57.5843 l
400.606 56.4418 l
401.012 56.1989 l
401.418 56.1791 l
401.824 56.3845 l
402.23 56.8158 l
402.637 57.4727 l
403.449 59.4554 l
404.261 62.3056 l
405.074 65.9763 l
406.292 72.8706 l
407.511 81.1568 l
409.542 96.9802 l
412.385 119.571 l
413.604 127.941 l
414.822 134.784 l
415.635 138.277 l
416.447 140.785 l
416.853 141.642 l
417.259 142.222 l
417.666 142.519 l
418.072 142.528 l
418.478 142.246 l
418.884 141.671 l
419.29 140.805 l
420.103 138.212 l
420.915 134.516 l
421.727 129.799 l
422.946 121.068 l
424.571 107.176 l
428.226 74.5954 l
429.445 66.0697 l
430.257 61.6583 l
431.07 58.4625 l
431.476 57.3627 l
431.882 56.6121 l
432.288 56.2203 l
432.694 56.1937 l
433.101 56.5357 l
433.507 57.2466 l
433.913 58.3231 l
434.725 61.5449 l
435.538 66.1102 l
436.35 71.8771 l
437.569 82.3536 l
439.6 102.578 l
441.631 122.255 l
442.849 131.844 l
443.662 136.762 l
444.474 140.259 l
444.88 141.427 l
445.286 142.189 l
445.692 142.537 l
446.099 142.466 l
446.505 141.975 l
446.911 141.069 l
447.317 139.755 l
448.13 135.956 l
448.942 130.722 l
450.161 120.64 l
451.785 104.467 l
454.629 75.541 l
455.847 66.0219 l
456.66 61.2741 l
457.472 58.018 l
457.878 56.9872 l
458.284 56.3667 l
458.69 56.16 l
459.097 56.3669 l
459.503 56.9825 l
459.909 57.9985 l
460.721 61.1778 l
461.534 65.7623 l
462.346 71.5585 l
463.565 82.0017 l
468.439 127.099 l
469.251 132.563 l
470.064 136.922 l
470.876 140.073 l
471.688 141.957 l
472.095 142.417 l
472.501 142.56 l
472.907 142.388 l
473.313 141.91 l
473.719 141.134 l
474.532 138.738 l
475.344 135.311 l
476.157 130.989 l
477.375 123.166 l
479 111.096 l
482.656 83.2882 l
484.28 73.0278 l
485.499 66.7911 l
486.717 61.9678 l
487.53 59.5671 l
488.342 57.8172 l
489.155 56.7032 l
489.561 56.3768 l
489.967 56.1989 l
490.373 56.1648 l
490.779 56.2696 l
491.592 56.8739 l
492.404 57.9661 l
493.216 59.4962 l
494.435 62.5006 l
495.654 66.2023 l
497.278 71.9357 l
499.715 81.5306 l
504.59 101.035 l
507.027 109.826 l
509.058 116.391 l
511.089 122.21 l
513.12 127.279 l
514.744 130.805 l
516.369 133.872 l
517.994 136.49 l
518.4 137.074 l
518.4 137.074 l
stroke
grestore
/DejaVuSans findfont
14.400 scalefont
setfont
gsave
139.309375 406.760000 translate
0.000000 rotate
0.000000 0.000000 m /M glyphshow
12.416122 0.000000 m /o glyphshow
21.220535 0.000000 m /d glyphshow
30.355209 0.000000 m /u glyphshow
39.475830 0.000000 m /l glyphshow
43.473999 0.000000 m /a glyphshow
52.292465 0.000000 m /t glyphshow
57.934875 0.000000 m /s glyphshow
65.432327 0.000000 m /i glyphshow
69.430496 0.000000 m /o glyphshow
78.234909 0.000000 m /o glyphshow
87.039322 0.000000 m /n glyphshow
96.159943 0.000000 m /space glyphshow
100.734299 0.000000 m /f glyphshow
105.800522 0.000000 m /i glyphshow
109.798691 0.000000 m /l glyphshow
113.796860 0.000000 m /t glyphshow
119.439270 0.000000 m /r glyphshow
124.980728 0.000000 m /e glyphshow
133.834335 0.000000 m /e glyphshow
142.687943 0.000000 m /r glyphshow
148.604401 0.000000 m /i glyphshow
152.602570 0.000000 m /t glyphshow
158.244980 0.000000 m /u glyphshow
167.365601 0.000000 m /d glyphshow
176.500275 0.000000 m /space glyphshow
181.074631 0.000000 m /p glyphshow
190.209305 0.000000 m /otilde glyphshow
199.013718 0.000000 m /h glyphshow
208.134338 0.000000 m /i glyphshow
212.132507 0.000000 m /r glyphshow
218.048965 0.000000 m /i glyphshow
222.047134 0.000000 m /b glyphshow
231.181808 0.000000 m /a glyphshow
240.000275 0.000000 m /s glyphshow
247.497726 0.000000 m /i glyphshow
251.495895 0.000000 m /g glyphshow
260.630569 0.000000 m /n glyphshow
269.751190 0.000000 m /a glyphshow
278.569656 0.000000 m /a glyphshow
287.388123 0.000000 m /l glyphshow
291.386292 0.000000 m /i glyphshow
295.384460 0.000000 m /g glyphshow
304.519135 0.000000 m /a glyphshow
grestore
0 setlinejoin
0 setlinecap
gsave
408.688 307.253 m
511.2 307.253 l
511.2 394.56 l
408.688 394.56 l
cl
gsave
1.000 setgray
fill
grestore
stroke
grestore
3.000 setlinewidth
1 setlinejoin
2 setlinecap
0.000 0.000 1.000 setrgbcolor
gsave
418.768 383.199 m
438.928 383.199 l
stroke
grestore
0.000 setgray
gsave
454.768125 378.159375 translate
0.000000 rotate
0.000000 0.000000 m /S glyphshow
9.134674 0.000000 m /i glyphshow
13.132843 0.000000 m /g glyphshow
22.267517 0.000000 m /n glyphshow
31.388138 0.000000 m /a glyphshow
40.206604 0.000000 m /a glyphshow
49.025070 0.000000 m /l glyphshow
grestore
1.000 setlinewidth
1.000 0.000 0.000 setrgbcolor
gsave
418.768 362.453 m
438.928 362.453 l
stroke
grestore
0.000 setgray
gsave
454.768125 357.412500 translate
0.000000 rotate
0.000000 0.000000 m /A glyphshow
9.844360 0.000000 m /M glyphshow
grestore
0.000 0.500 0.000 setrgbcolor
gsave
418.768 341.706 m
438.928 341.706 l
stroke
grestore
0.000 setgray
gsave
454.768125 336.665625 translate
0.000000 rotate
0.000000 0.000000 m /F glyphshow
8.277420 0.000000 m /M glyphshow
grestore
gsave
418.768 320.959 m
438.928 320.959 l
stroke
grestore
gsave
454.768125 315.918750 translate
0.000000 rotate
0.000000 0.000000 m /P glyphshow
8.677933 0.000000 m /M glyphshow
grestore

end
showpage
